U Zarni,,Male,9401667644,13/TakaNa(N)204099," 1,695 ",9263094818,866936024184580,AA 1184,U Zarni,9401667644
U Sein Lwin Oo,,Male,9421038829,12/PaZaTa(N)062453," 1,000 ",9453194365,866936023029653,AA 4885,U Sein Lwin Oo,9421038829
U Khin Mg Zaw,,Male,9799256038,12/OuKaTa(N)046283," 1,000 ",9253093850,866936028694444,9D 1200,U Khin Mg Zaw,9799256038
U Tin Aye Ko,,Male,9799695737,12/PaSaTa(N)003686," 9,870 ",9425983144,862678038916359,4J 4091,U Tin Aye Ko,9799695737
U Aung Aung,,Male,9762455862,12/LaMaNa(N)133939," 6,265 ",9425983130,864799030408373,5J 8058,U Aung Aung,9762455862
U Kyaw Thu,,Male,9448305017,12/DaPaNa(N)052515," 1,000 ",9453194604,860978038971434,GG 8458,U Kyaw Thu,9448305017
U Hein Min Zaw,,Male,9787141541,14/MaMaNa(N)199347," 5,000 ",9253094026,866936028675567,GG 4069,U Hein Min Zaw,9787141541
U Kyaw Zayar Oo,,Male,9254061937,12/TaMaNa(N)106930," 10,715 ",,,5H 9680,U Kyaw Zayar Oo,9254061937
U Zaw Min Latt,,Male,9457678630,7/WaMaNa(N)096955," 2,620 ",9253093959,866936023038829,CC 2543,U Zaw Min Latt,9457678630
U Zaw Zaw Htike,,Male,95077218,12/TaMaNa(N)096527," 15,000 ",9425982826,864799030417465,1E 7745,U Zaw Zaw Htike,95077218
U Phyo Mya San,,Male,9799200351,12/ThaMaNa(N)003144," 1,000 ",9453194419,860978038970667,2I 2167,U Phyo Mya San,9799200351
U Chit Win,,Male,9795719197,12/AhSaNa(N)013583," 6,850 ",9425982874,864799032250252,4E 2912,U Chit Win,9795719197
U Khin Aung Lwin,,Male,9254203573,12/PaBaTa(N)022055," 8,603 ",9453194543,862678032836181,BB 8330,U Khin Aung Lwin,9254203573
