1,DRV000001,U Kyaw Thiha Win,U Kyaw Thiha Win,09968054322 09975474125,,9968054322,752,1000,,,,,,,,,,,,,,,,,,,,,,,,
2,DRV000002,U Win Zaw,U Win Zaw,09442333287,,9442333287,586,1000,,,,,,,,,,,,,,,,,,,,,,,,
3,DRV000003,U Hla Han,U Hla Han,0973216282,,973216282,4890.8,3722.8,,,,,,,,,,,,,,,,,,,,,,,,
4,DRV000004,U Han Linn,U Han Linn,09421023018,,9451200519,10000,9700,,,,,,,,,,,,,,,,,,,,,,,,
5,DRV000005,U Zaw Zaw Aung,U Zaw Zaw Aung,09785422474,,9785422474,9840,10440,,,,,,,,,,,,,,,,,,,,,,,,
6,DRV000006,U Kyaw Min Naing,U Kyaw Min Naing,09254010294,,9254010294,2860,2860,,,,,,,,,,,,,,,,,,,,,,,,
7,DRV000007,U Mya Oo,U Mya Oo,09799752400,,9799752400,11470,10970,,,,,,,,,,,,,,,,,,,,,,,,
8,DRV000008,U Aung Kyaw San,U Aung Kyaw San,09421014607 09967704961,,9421014607,1500,1000,,,,,,,,,,,,,,,,,,,,,,,,
9,DRV000009,U Myat Khaing,U Myat Khaing,09775587090,,9775587090,1500,1000,,,,,,,,,,,,,,,,,,,,,,,,
10,DRV000010,U Zaw Myint,U Zaw Myint,09962535180,,9962535180,1303,3795,,,,,,,,,,,,,,,,,,,,,,,,
11,DRV000011,U Myo Min Tun,U Myo Min Tun,09792220994,,9792220994,1500,1000,,,,,,,,,,,,,,,,,,,,,,,,
12,DRV000012,U Aung Nay Win,U Aung Nay Win,09261781597,,9261781597,1500,1000,,,,,,,,,,,,,,,,,,,,,,,,
13,DRV000013,U Htoo,U Htoo,095413327,,95413327,10001,1000,,,,,,,,,,,,,,,,,,,,,,,,
14,DRV000014,U Min Thu,U Min Thu,09256101628,,9256101628,8012.43,6287.43,,,,,,,,,,,,,,,,,,,,,,,,
15,DRV000015,U Myint Oo,U Myint Oo,09420082085,,9420082085,5020,5020,,,,,,,,,,,,,,,,,,,,,,,,
16,DRV000016,U Phyo Zin Oo,U Phyo Zin Oo,09421039892,,9421039892,7131,7246,,,,,,,,,,,,,,,,,,,,,,,,
17,DRV000017,U Ko Ko Aung,U Ko Ko Aung,0943099045,,943099045,1917,1000,,,,,,,,,,,,,,,,,,,,,,,,
18,DRV000018,U Myo Naing,U Myo Naing,09420189101,,9420189101,300.25,1000,,,,,,,,,,,,,,,,,,,,,,,,
19,DRV000019,U Zaw Min,U Zaw Min,09974574445,,9974574445,3885,2795,,,,,,,,,,,,,,,,,,,,,,,,
20,DRV000020,U Thet Naung,U Thet Naung,09254014422,,9254014422,-372,6545,,,,,,,,,,,,,,,,,,,,,,,,
21,DRV000021,U Gee Mu Thee,U Gee Mu Thee,09263734339,,9263734339,4017,5185,,,,,,,,,,,,,,,,,,,,,,,,
22,DRV000022,U Zaw Min Tun,U Zaw Min Tun,09964123412,,9964123412,2007,1000,,,,,,,,,,,,,,,,,,,,,,,,
23,DRV000023,U Mg Mg Myint,U Mg Mg Myint,09420053963,,9420053963,1302,1000,,,,,,,,,,,,,,,,,,,,,,,,
24,DRV000024,U Than Ohn,U Than Ohn,9799911280,,9799911280,6070,6890,,,,,,,,,,,,,,,,,,,,,,,,
25,DRV000025,U Ye Naing Oo,U Ye Naing Oo,9790520554,,9790520554,2395.25,24620,,,,,,,,,,,,,,,,,,,,,,,,
26,DRV000026,U Thet Khaing Oo,U Thet Khaing Oo,09788710416,,9788710416,7975.5,2485,,,,,,,,,,,,,,,,,,,,,,,,
27,DRV000027,U Aung Min Min,U Aung Min Min,09795790024,,9795790024,7725,7725,,,,,,,,,,,,,,,,,,,,,,,,
28,DRV000028,U Hein Soe,U Hein Soe,9252816113,,9252816113,1675,1100,,,,,,,,,,,,,,,,,,,,,,,,
29,DRV000029,U Khin Mg Htwe,U Khin Mg Htwe,0943202447,,943202447,10300.44,19420.44,,,,,,,,,,,,,,,,,,,,,,,,
30,DRV000030,U Aung Kyaw Naing,U Aung Kyaw Naing,09254749671,,9254749671,13617,13740,,,,,,,,,,,,,,,,,,,,,,,,
31,DRV000031,U Aung Min Oo,U Aung Min Oo,09799851106 09252307595,,9799851106,1200,1000,,,,,,,,,,,,,,,,,,,,,,,,
32,DRV000032,U Aye Maung,U Aye Maung,09796318450,,9796318450,21065,1000,,,,,,,,,,,,,,,,,,,,,,,,
33,DRV000033,U San Ni Tun,U San Ni Tun,09250397766,,9250397766,5727,3130,,,,,,,,,,,,,,,,,,,,,,,,
34,DRV000034,U Aung Kyaw,U Aung Kyaw,09769389405,,9769389405,2075,1985,,,,,,,,,,,,,,,,,,,,,,,,
35,DRV000035,U Soe Win Htet,U Soe Win Htet,09796611443,,9796611443,3860,3860,,,,,,,,,,,,,,,,,,,,,,,,
36,DRV000036,U Thein Aung,U Thein Aung,09256209007,,9256209007,9426,7085,,,,,,,,,,,,,,,,,,,,,,,,
37,DRV000037,U Myo Tun Win,U Myo Tun Win,09254177892,,9254177892,1500,1000,,,,,,,,,,,,,,,,,,,,,,,,
38,DRV000038,U Myo Min Htet,U Myo Min Htet,09799484789,,9799484789,1297,1000,,,,,,,,,,,,,,,,,,,,,,,,
39,DRV000039,U Tin Htut Aung,U Tin Htut Aung,09450043597,,9450043597,12560,4310,,,,,,,,,,,,,,,,,,,,,,,,
40,DRV000040,U Naing Myint Oo,U Naing Myint Oo,09250065517,,9250065517,1500,1000,,,,,,,,,,,,,,,,,,,,,,,,
41,DRV000041,U Ko Ko Lay,U Ko Ko Lay,09252429991,,9252429991,18285,17365,,,,,,,,,,,,,,,,,,,,,,,,
42,DRV000042,U Tin Myo Nyunt,U Tin Myo Nyunt,09254253252,,9254253252,7995,7005,,,,,,,,,,,,,,,,,,,,,,,,
43,DRV000043,U Ye Myint Tun,U Ye Myint Tun,09421073437,,9421073437,3620,3620,,,,,,,,,,,,,,,,,,,,,,,,
44,DRV000044,U Mg Thein,U Mg Thein,09777234132 0943117519,,9777234132,842,4220,,,,,,,,,,,,,,,,,,,,,,,,
45,DRV000045,U Hla Htun,U Hla Htun,943024631,,943024631,2984,1000,,,,,,,,,,,,,,,,,,,,,,,,
46,DRV000046,U Thet Paing Oo,U Thet Paing Oo,9263033353,,9263033353,1122,1000,,,,,,,,,,,,,,,,,,,,,,,,
47,DRV000047,U Phyo Wai Lin,U Phyo Wai Lin,09796962711,,9796962711,5135,2150,,,,,,,,,,,,,,,,,,,,,,,,
48,DRV000048,U Zaw Zaw Thant,U Zaw Zaw Thant,09777166575,,9777166575,1313,1000,,,,,,,,,,,,,,,,,,,,,,,,
49,DRV000049,U Kyaw Thu,U Kyaw Thu,09763809079,,9763809079,7636.5,13165,,,,,,,,,,,,,,,,,,,,,,,,
50,DRV000050,U Thet Lwin Oo,U Thet Lwin Oo,09265209190,,9265209190,798,1000,,,,,,,,,,,,,,,,,,,,,,,,
51,DRV000051,U Thet Myaing,U Thet Myaing,09778045420,,9778045420,12311.75,6045,,,,,,,,,,,,,,,,,,,,,,,,
52,DRV000052,U Htay Ko,U Htay Ko,09795808464,,9795808464,4918,5265,,,,,,,,,,,,,,,,,,,,,,,,
53,DRV000053,U Htike,U Htike,09420091663,,9420091663,7931,13420,,,,,,,,,,,,,,,,,,,,,,,,
54,DRV000054,U Aung Aung,U Aung Aung,"09253232522 
0949334256",,9253232522,3090,2450,,,,,,,,,,,,,,,,,,,,,,,,
55,DRV000055,U Kyi Lwin,U Kyi Lwin,0973112303,,9767175416,12355,11605,,,,,,,,,,,,,,,,,,,,,,,,
56,DRV000056,U Aung Kyaw Soe Win,U Aung Kyaw Soe Win,09421136814,,9421136814,772,1000,,,,,,,,,,,,,,,,,,,,,,,,
57,DRV000057,U Kyaw Swar Htay,U Kyaw Swar Htay,09792481507,,9792481507,20476,20225,,,,,,,,,,,,,,,,,,,,,,,,
58,DRV000058,Daw Thu Zar,Daw Thu Zar,95021895,,95021895,592,1000,,,,,,,,,,,,,,,,,,,,,,,,
59,DRV000059,U Phyo Paing Win,U Phyo Paing Win,"09253232522
0949334256",,949334256,16110,15545,,,,,,,,,,,,,,,,,,,,,,,,
60,DRV000060,U Khin Thein,U Khin Thein,9798167085,,9798167085,11638,20125,,,,,,,,,,,,,,,,,,,,,,,,
61,DRV000061,U Aung Moe Zaw,U Aung Moe Zaw,09420282729,,9420282729,9974,9305,,,,,,,,,,,,,,,,,,,,,,,,
62,DRV000062,U Thet Paing Oo,U Thet Paing Oo,09423542418,,9423542418,4445,2945,,,,,,,,,,,,,,,,,,,,,,,,
63,DRV000063,U Than Zaw Lin,U Than Zaw Lin,09420140996,,9420140996,8226.25,1000,,,,,,,,,,,,,,,,,,,,,,,,
64,DRV000064,U Thet Naing,U Thet Naing,9976330851,,9976330851,7230,5985,,,,,,,,,,,,,,,,,,,,,,,,
65,DRV000065,U Kyaw Swe Oo,U Kyaw Swe Oo,09778695384,,9778695384,2200,2200,,,,,,,,,,,,,,,,,,,,,,,,
66,DRV000066,U Kyaw Thu Soe,U Kyaw Thu Soe,095175841,,95175841,6925,6925,,,,,,,,,,,,,,,,,,,,,,,,
67,DRV000067,U Lin Ko Ko,U Lin Ko Ko,09452277665,,9452277665,6829,6518,,,,,,,,,,,,,,,,,,,,,,,,
68,DRV000068,U Nyunt Wai,U Nyunt Wai,"09252201919
09792370499",,9252201919,4193,3718,,,,,,,,,,,,,,,,,,,,,,,,
69,DRV000069,U Myo Thant,U Myo Thant,09260574988,,9260574988,9645.99,9645.99,,,,,,,,,,,,,,,,,,,,,,,,
70,DRV000070,U Win Aung Hlaing,U Win Aung Hlaing,09975648130,,9975648130,1000,1000,,,,,,,,,,,,,,,,,,,,,,,,
71,DRV000071,U Myo Aung,U Myo Aung,'09775523082,,9775523082,1524,5050,,,,,,,,,,,,,,,,,,,,,,,,
72,DRV000072,U Khin Tun,U Khin Tun,095196640,,95196640,8842,8255,,,,,,,,,,,,,,,,,,,,,,,,
73,DRV000073,U Ye Min Win,U Ye Min Win,"0973163367 
09788467740",,973163367,7385,6100,,,,,,,,,,,,,,,,,,,,,,,,
74,DRV000074,U Yan Naing Myint,U Yan Naing Myint,0943129772,,943129772,3910,3910,,,,,,,,,,,,,,,,,,,,,,,,
75,DRV000075,U Aung Khaing Oo,U Aung Khaing Oo,09263113767,,9263113767,6717,6717,,,,,,,,,,,,,,,,,,,,,,,,
76,DRV000076,U Nay Myo Aung,U Nay Myo Aung,09795597271,,9795597271,4311,4311,,,,,,,,,,,,,,,,,,,,,,,,
77,DRV000077,U Oakkar Min Paing,U Oakkar Min Paing,"09781966680
0943081457",,9781966680,6887,7370,,,,,,,,,,,,,,,,,,,,,,,,
78,DRV000078,U Moe Kyaw Thu,U Moe Kyaw Thu,"09425004257
09253214674",,9425004257,2415,7950,,,,,,,,,,,,,,,,,,,,,,,,
79,DRV000079,U Aung Myat Soe,U Aung Myat Soe,09795703984,,9795703984,3230,3230,,,,,,,,,,,,,,,,,,,,,,,,
80,DRV000080,U Thant Zin Oo,U Thant Zin Oo,09421105098,,9421105098,1371,7975,,,,,,,,,,,,,,,,,,,,,,,,
81,DRV000081,U Ye Aung,U Ye Aung,09779599363,,9779599363,3275,1745,,,,,,,,,,,,,,,,,,,,,,,,
82,DRV000082,U Myat Thu Aung,U Myat Thu Aung,09456614421,,9456614421,4700,4700,,,,,,,,,,,,,,,,,,,,,,,,
83,DRV000083,U Zarni,U Zarni,09250040298,,9250040298,5000,5000,,,,,,,,,,,,,,,,,,,,,,,,
84,DRV000084,U Tint Swe,U Tint Swe,09783522800,,9783522800,3329,3140,,,,,,,,,,,,,,,,,,,,,,,,
85,DRV000085,U Kyaw Kyaw Lwin,U Kyaw Kyaw Lwin,0943025372,,943025372,7636,4985,,,,,,,,,,,,,,,,,,,,,,,,
86,DRV000086,U Toe Aung,U Toe Aung,9791826503,,9791826503,4369,4045,,,,,,,,,,,,,,,,,,,,,,,,
87,DRV000087,U Thant Zin,U Thant Zin,09254013838,,9254013838,12319,10873,,,,,,,,,,,,,,,,,,,,,,,,
88,DRV000088,U San Htay,U San Htay,09421068246,,9421068246,1500,1000,,,,,,,,,,,,,,,,,,,,,,,,
89,DRV000089,U Khin Aye,U Khin Aye,09250709188,,9250709188,1400,1000,,,,,,,,,,,,,,,,,,,,,,,,
90,DRV000090,U Tun Linn Kyaw,U Tun Linn Kyaw,09791953534,,9791953534,6355,18235,,,,,,,,,,,,,,,,,,,,,,,,
91,DRV000091,U Win Zaw Hein,U Win Zaw Hein,09770676536,,9770676536,1500,1000,,,,,,,,,,,,,,,,,,,,,,,,
92,DRV000092,U Kyaw Myint,U Kyaw Myint,0973164929,,973164929,8560,8560,,,,,,,,,,,,,,,,,,,,,,,,
93,DRV000093,U Aye Zaw,U Aye Zaw,095075069 0942014109,,9965075069,7029,7890,,,,,,,,,,,,,,,,,,,,,,,,
94,DRV000094,Daw Cho Cho Mar,Daw Cho Cho Mar,09775279015,,9775279015,3565,3665,,,,,,,,,,,,,,,,,,,,,,,,
95,DRV000095,U Myo Thar,U Myo Thar,09420990136,,9420990136,3472,3480,,,,,,,,,,,,,,,,,,,,,,,,
96,DRV000096,U Kyaw Thu Zaw Min,U Kyaw Thu Zaw Min,09779711897,,9779711897,17262,16872,,,,,,,,,,,,,,,,,,,,,,,,
97,DRV000097,U Htwe,U Htwe,09795309863,,9795309863,2900.62,1335.62,,,,,,,,,,,,,,,,,,,,,,,,
98,DRV000098,U Soe Win,U Soe Win,09795770740,,9795770740,6211,5465,,,,,,,,,,,,,,,,,,,,,,,,
99,DRV000099,U Nanda Aung,U Nanda Aung,09797973822,,9797973822,14430,14430,,,,,,,,,,,,,,,,,,,,,,,,
100,DRV000100,U Thein Saung,U Thein Saung,095016366,,95016366,1500,1000,,,,,,,,,,,,,,,,,,,,,,,,
101,DRV000101,U Zaw Chin,U Zaw Chin,09428172867,,9428172867,-875,1000,,,,,,,,,,,,,,,,,,,,,,,,
102,DRV000102,U Kyaw Oo,U Kyaw Oo,095080377,,95080377,13044,12639,,,,,,,,,,,,,,,,,,,,,,,,
103,DRV000103,U Hlaing Htun,U Hlaing Htun,"09764764107
09795403646",,9764764107,4181.75,13380,,,,,,,,,,,,,,,,,,,,,,,,
104,DRV000104,U Myint Thu,U Myint Thu,09420024642,,9420024642,18750,18850,,,,,,,,,,,,,,,,,,,,,,,,
105,DRV000105,U Zaw Moe Aung,U Zaw Moe Aung,09420014182,,9420014182,2160,1585,,,,,,,,,,,,,,,,,,,,,,,,
106,DRV000106,U Thet  Htun,U Thet  Htun,0943204832,,943204832,3226,3995,,,,,,,,,,,,,,,,,,,,,,,,
107,DRV000107,U Phoe La Min,U Phoe La Min,09787115658,,9787115658,3760,3760,,,,,,,,,,,,,,,,,,,,,,,,
108,DRV000108,U Sann Win,U Sann Win,9773192743,,9773192743,6888,12155,,,,,,,,,,,,,,,,,,,,,,,,
109,DRV000109,U Htain Myint,U Htain Myint,0973109152,,973109152,4712,1000,,,,,,,,,,,,,,,,,,,,,,,,
110,DRV000110,U Aung Myint Oo,U Aung Myint Oo,09420579261,,9420579261,12055,5335,,,,,,,,,,,,,,,,,,,,,,,,
111,DRV000111,U Hla Aung,U Hla Aung,09453396767,,9453396767,792,6575,,,,,,,,,,,,,,,,,,,,,,,,
112,DRV000112,U Kyaw Win Thein,U Kyaw Win Thein,09420050374,,9420050374,1321,1000,,,,,,,,,,,,,,,,,,,,,,,,
113,DRV000113,U Min Win Lin,U Min Win Lin,09772769078,,9772769078,6901,6901,,,,,,,,,,,,,,,,,,,,,,,,
114,DRV000114,U Mg Mg Gyi,U Mg Mg Gyi,09255807690,,9255807690,9415,9415,,,,,,,,,,,,,,,,,,,,,,,,
115,DRV000115,U Kyaw Swar Moe,U Kyaw Swar Moe,9791442789,,9791442789,1780,1880,,,,,,,,,,,,,,,,,,,,,,,,
116,DRV000116,U Zaw Lin Naing,U Zaw Lin Naing,09428132432,,9428132432,2820,1040,,,,,,,,,,,,,,,,,,,,,,,,
117,DRV000117,U Soe Min Aung,U Soe Min Aung,0973110344,,973110344,7263,5400,,,,,,,,,,,,,,,,,,,,,,,,
118,DRV000118,U Thein Zaw Latt,U Thein Zaw Latt,09250011683,,9250011683,2559,2055,,,,,,,,,,,,,,,,,,,,,,,,
119,DRV000119,U Zaw Ko Ko,U Zaw Ko Ko,09798412950,,9798412950,-1352,4895,,,,,,,,,,,,,,,,,,,,,,,,
120,DRV000120,U Aung Myo Min,U Aung Myo Min,"09451619990
09969915151",,9451619990,1269,1000,,,,,,,,,,,,,,,,,,,,,,,,
121,DRV000121,U Ye Min Hein,U Ye Min Hein,09795544549,,9795544549,4635,4030,,,,,,,,,,,,,,,,,,,,,,,,
122,DRV000122,U Nay Lin,U Nay Lin,09975377999,,9975377999,177,1000,,,,,,,,,,,,,,,,,,,,,,,,
123,DRV000123,U Kyaw Zin Oo,U Kyaw Zin Oo,09799675536,,9799675536,8795,8795,,,,,,,,,,,,,,,,,,,,,,,,
124,DRV000124,U Chit,U Chit,09255786762,,9255786762,1164,9945,,,,,,,,,,,,,,,,,,,,,,,,
125,DRV000125,U Khin Mg Myo,U Khin Mg Myo,0931259446,,931259446,3174,5560,,,,,,,,,,,,,,,,,,,,,,,,
126,DRV000126,U Myat Ko Ko,U Myat Ko Ko,09799772628,,9799772628,19764,21315,,,,,,,,,,,,,,,,,,,,,,,,
127,DRV000127,U Min Min Htike,U Min Min Htike,09420061295,,9420061295,4647,5075,,,,,,,,,,,,,,,,,,,,,,,,
128,DRV000128,U Kyaw Zin,U Kyaw Zin,09254254830,,9254254830,1500,1000,,,,,,,,,,,,,,,,,,,,,,,,
129,DRV000129,U Soe Oo,U Soe Oo,"09449529756
09423744292",,9449529756,5949,10125,,,,,,,,,,,,,,,,,,,,,,,,
130,DRV000130,U Pyae Phyo Thu,U Pyae Phyo Thu,09799696316,,9799696316,19094.04,19235.04,,,,,,,,,,,,,,,,,,,,,,,,
131,DRV000131,U Hla Oo,U Hla Oo,09450209918,,9450209918,5580,5580,,,,,,,,,,,,,,,,,,,,,,,,
132,DRV000132,U Than Zaw,U Than Zaw,09456333252,,9456333252,972,1000,,,,,,,,,,,,,,,,,,,,,,,,
133,DRV000133,U Naing Naing Oo,U Naing Naing Oo,9420284399,,9420284399,10919.72,11197.72,,,,,,,,,,,,,,,,,,,,,,,,
134,DRV000134,U Myo Lwin,U Myo Lwin,09421078374,,9421078374,2547,12650,,,,,,,,,,,,,,,,,,,,,,,,
135,DRV000135,U Thiha Aung,U Thiha Aung,09453300229,,9453300229,15677,17200,,,,,,,,,,,,,,,,,,,,,,,,
136,DRV000136,U Aung Lwin,U Aung Lwin,09960487943,,9960487943,12670,12670,,,,,,,,,,,,,,,,,,,,,,,,
137,DRV000137,U Naung Naung Soe,U Naung Naung Soe,0932205001,,932205001,7971,7765,,,,,,,,,,,,,,,,,,,,,,,,
138,DRV000138,U Zaw Zaw Myint,U Zaw Zaw Myint,09421045252,,9421045252,9095,9095,,,,,,,,,,,,,,,,,,,,,,,,
139,DRV000139,U Kyaw Swar Ko Ko,U Kyaw Swar Ko Ko,09782640877,,9782640877,900,1000,,,,,,,,,,,,,,,,,,,,,,,,
140,DRV000140,U Min Min Tun,U Min Min Tun,09795860175,,9795860175,15000,15000,,,,,,,,,,,,,,,,,,,,,,,,
141,DRV000141,U Thiha,U Thiha,09799494916,,9799494916,1500,1000,,,,,,,,,,,,,,,,,,,,,,,,
142,DRV000142,U Naing Soe,U Naing Soe,09979601990,,9979601990,16150,15660,,,,,,,,,,,,,,,,,,,,,,,,
143,DRV000143,U Myo Aung,U Myo Aung,09782687321,,9782687321,2579,16625,,,,,,,,,,,,,,,,,,,,,,,,
144,DRV000144,U Myo Lwin Oo,U Myo Lwin Oo,09799922028,,9799922028,5000,5000,,,,,,,,,,,,,,,,,,,,,,,,
145,DRV000145,U Soe Ye Lin,U Soe Ye Lin,095154631,,95154631,28791,28791,,,,,,,,,,,,,,,,,,,,,,,,
146,DRV000146,U Myat Thu Aung,U Myat Thu Aung,09254879252,,9254879252,12295,12395,,,,,,,,,,,,,,,,,,,,,,,,
147,DRV000147,U Ba Soe Chit,U Ba Soe Chit,095020008,,95020008,5713,7145,,,,,,,,,,,,,,,,,,,,,,,,
148,DRV000148,U Phyo Thu Han,U Phyo Thu Han,09250009573,,9250009573,10350,9255,,,,,,,,,,,,,,,,,,,,,,,,
149,DRV000149,U Ko Ko Naing,U Ko Ko Naing,09250708419,,9250708419,1264,1000,,,,,,,,,,,,,,,,,,,,,,,,
150,DRV000150,U Aung Kyaw Moe,U Aung Kyaw Moe,09428159072,,9428159072,6977,11405,,,,,,,,,,,,,,,,,,,,,,,,
151,DRV000151,U Thein Tan,U Thein Tan,09798100425,,9798100425,438,1000,,,,,,,,,,,,,,,,,,,,,,,,
152,DRV000152,U Cho Naing,U Cho Naing,09428627878,,9428627878,19000,19100,,,,,,,,,,,,,,,,,,,,,,,,
153,DRV000153,U Myo Min Tun,U Myo Min Tun,09421029275,,9421029275,17285,17285,,,,,,,,,,,,,,,,,,,,,,,,
154,DRV000154,U Zaw Win Naing,U Zaw Win Naing,09777230075,,9777230075,13930,13930,,,,,,,,,,,,,,,,,,,,,,,,
155,DRV000155,U Kyaw Kyaw Thu,U Kyaw Kyaw Thu,09254709703,,9254709703,11475,11475,,,,,,,,,,,,,,,,,,,,,,,,
156,DRV000156,U Soe Myint,U Soe Myint,09422020437,,9422020437,8210,8110,,,,,,,,,,,,,,,,,,,,,,,,
157,DRV000157,U Kan Linn Mg,U Kan Linn Mg,0943121877,,943121877,3055,2545,,,,,,,,,,,,,,,,,,,,,,,,
158,DRV000158,U Thurein Win,U Thurein Win,09263119495,,9263119495,9660,9660,,,,,,,,,,,,,,,,,,,,,,,,
159,DRV000159,U Soe Min,U Soe Min,09421009279,,9421009279,6120,6120,,,,,,,,,,,,,,,,,,,,,,,,
160,DRV000160,U Aung San Oo,U Aung San Oo,09420043049,,9420043049,7535,7535,,,,,,,,,,,,,,,,,,,,,,,,
161,DRV000161,U Thura Lin,U Thura Lin,09961352377,,9961352377,7500,1000,,,,,,,,,,,,,,,,,,,,,,,,
162,DRV000162,U Kyaw Thu,U Kyaw Thu,09421103706,,9421103706,1500,1000,,,,,,,,,,,,,,,,,,,,,,,,
163,DRV000163,U Tin Win,U Tin Win,0943026968,,943026968,4470,14537.23,,,,,,,,,,,,,,,,,,,,,,,,
164,DRV000164,U Zin Min Htet,U Zin Min Htet,09257475367,,9257475367,1400,1000,,,,,,,,,,,,,,,,,,,,,,,,
165,DRV000165,U Nay Lin Tun,U Nay Lin Tun,095163382,,95163382,11705,10535,,,,,,,,,,,,,,,,,,,,,,,,
166,DRV000166,U Pyae Sone Aung,U Pyae Sone Aung,09450882811,,9450882811,4325,4975,,,,,,,,,,,,,,,,,,,,,,,,
167,DRV000167,U Han Win Aung,U Han Win Aung,09785036586,,9785036586,4410,4510,,,,,,,,,,,,,,,,,,,,,,,,
168,DRV000168,U Kyaw Min Tun,U Kyaw Min Tun,09422221505,,9422221505,8871,8260,,,,,,,,,,,,,,,,,,,,,,,,
169,DRV000169,U Hein Ko Ko,U Hein Ko Ko,09450040120,,9450040120,9986,6070,,,,,,,,,,,,,,,,,,,,,,,,
170,DRV000170,U Nyi Nyi Aung,U Nyi Nyi Aung,09972627760,,9972627760,4770,5140,,,,,,,,,,,,,,,,,,,,,,,,
171,DRV000171,U Khin Zaw,U Khin Zaw,0943157925,,943157925,8444,4730,,,,,,,,,,,,,,,,,,,,,,,,
172,DRV000172,U Tha Toe Lin,U Tha Toe Lin,09798679319,,9798679319,1500,1000,,,,,,,,,,,,,,,,,,,,,,,,
173,DRV000173,U Htin Kyaw,U Htin Kyaw,09779219337,,9779219337,11971,8516,,,,,,,,,,,,,,,,,,,,,,,,
174,DRV000174,U Zaw Lwin Oo,U Zaw Lwin Oo,09795542432,,9795542432,8901,8475,,,,,,,,,,,,,,,,,,,,,,,,
175,DRV000175,U Myint Oo,U Myint Oo,09779808277,,9779808277,20911.58,14880.58,,,,,,,,,,,,,,,,,,,,,,,,
176,DRV000176,U Ye Htike,U Ye Htike,09420222309,,9420222309,2563.5,1000,,,,,,,,,,,,,,,,,,,,,,,,
177,DRV000177,U Sai Aung,U Sai Aung,09421016693,,9421016693,3078,3205,,,,,,,,,,,,,,,,,,,,,,,,
178,DRV000178,U Khin Nwel,U Khin Nwel,09423722691,,9423722691,5474,1000,,,,,,,,,,,,,,,,,,,,,,,,
179,DRV000179,U Ko Win,U Ko Win,09421119886,,9421119886,15291,14045,,,,,,,,,,,,,,,,,,,,,,,,
180,DRV000180,U Tin Tun Lwin,U Tin Tun Lwin,09974037695,,9974037695,23279,22389,,,,,,,,,,,,,,,,,,,,,,,,
181,DRV000181,U Htay Oo,U Htay Oo,0930229085,,930229085,20050,20050,,,,,,,,,,,,,,,,,,,,,,,,
182,DRV000182,U Htwe Hlaing,U Htwe Hlaing,9795629029,,9795629029,15068.71,15515.71,,,,,,,,,,,,,,,,,,,,,,,,
183,DRV000183,U Hnin Mg Mg,U Hnin Mg Mg,09252637707,,9252637707,3977,4195,,,,,,,,,,,,,,,,,,,,,,,,
184,DRV000184,U Kyaw Min Naing,U Kyaw Min Naing,0943031454,,943031454,5927,2515,,,,,,,,,,,,,,,,,,,,,,,,
185,DRV000185,U Kyaw Kyaw,U Kyaw Kyaw,0973058796,,973058796,14190,10180,,,,,,,,,,,,,,,,,,,,,,,,
186,DRV000186,U Zaw Lin Tun,U Zaw Lin Tun,9799443641,,9799443641,4410,2940,,,,,,,,,,,,,,,,,,,,,,,,
187,DRV000187,U Zaw Win Naing,U Zaw Win Naing,09420317846,,9420317846,1500,4725,,,,,,,,,,,,,,,,,,,,,,,,
188,DRV000188,U San Nyunt Oo,U San Nyunt Oo,09449250215,,9449250215,6372,5720,,,,,,,,,,,,,,,,,,,,,,,,
189,DRV000189,U Aung Naing Oo,U Aung Naing Oo,0943142884,,943142884,7437,6980,,,,,,,,,,,,,,,,,,,,,,,,
190,DRV000190,U Hla Moe ,U Hla Moe ,9260444749,,9260444749,7443,15330,,,,,,,,,,,,,,,,,,,,,,,,
191,DRV000191,U Wai Phyo Htet,U Wai Phyo Htet,0943012128,,943012128,1000,1000,,,,,,,,,,,,,,,,,,,,,,,,
192,DRV000192,U Naing Lin Than,U Naing Lin Than,09254055425,,9254055425,1500,1000,,,,,,,,,,,,,,,,,,,,,,,,
193,DRV000193,U Aung Kyaw Lin Oo,U Aung Kyaw Lin Oo,09782788831,,9782788831,1500,1000,,,,,,,,,,,,,,,,,,,,,,,,
194,DRV000194,U Thant Zaw,U Thant Zaw,09799660861,,9799660861,3290,3290,,,,,,,,,,,,,,,,,,,,,,,,
195,DRV000195,U Kyaw Kyaw Soe,U Kyaw Kyaw Soe,0943132267,,943132267,1500,1000,,,,,,,,,,,,,,,,,,,,,,,,
196,DRV000196,U Aung Bo Bo Htet,U Aung Bo Bo Htet,09254381452,,9254381452,4604,11990,,,,,,,,,,,,,,,,,,,,,,,,
197,DRV000197,U Aung Myat Thu,U Aung Myat Thu,09795831412,,9795831412,1297,1000,,,,,,,,,,,,,,,,,,,,,,,,
198,DRV000198,U Myo Min Htike,U Myo Min Htike,09420715454,,9420715454,9525,9525,,,,,,,,,,,,,,,,,,,,,,,,
199,DRV000199,U Than Zaw,U Than Zaw,09796597289,,9796597289,1870,9495,,,,,,,,,,,,,,,,,,,,,,,,
200,DRV000200,U Khaing Zaw,U Khaing Zaw,09425326908,,9425326908,3325.25,1000,,,,,,,,,,,,,,,,,,,,,,,,
201,DRV000201,U Kyaw Lwin Oo,U Kyaw Lwin Oo,09777288509,,9777288509,14590,11420,,,,,,,,,,,,,,,,,,,,,,,,
202,DRV000202,U Zaw Zaw,U Zaw Zaw,09261352323,,9261352323,8955,1000,,,,,,,,,,,,,,,,,,,,,,,,
203,DRV000203,U Ye Nyo Oo,U Ye Nyo Oo,9250793920,,9250793920,14520,14520,,,,,,,,,,,,,,,,,,,,,,,,
204,DRV000204,U Win Shwe,U Win Shwe,09250508991,,9250508991,1500,1000,,,,,,,,,,,,,,,,,,,,,,,,
205,DRV000205,U Thein Han,U Thein Han,9798432562,,9798432562,1500,1000,,,,,,,,,,,,,,,,,,,,,,,,
206,DRV000206,U Aung Thu Latt,U Aung Thu Latt,"09799875771
09420091800",,9799875771,11704,8920,,,,,,,,,,,,,,,,,,,,,,,,
207,DRV000207,U Win Shwe,U Win Shwe,09262133005,,9262133005,9760,9760,,,,,,,,,,,,,,,,,,,,,,,,
208,DRV000208,U Tun Tun Oo,U Tun Tun Oo,09444455790,,9444455790,1142,1000,,,,,,,,,,,,,,,,,,,,,,,,
209,DRV000209,U Zaw Myo Aung,U Zaw Myo Aung,9799596499,,9799596499,5993,5885,,,,,,,,,,,,,,,,,,,,,,,,
210,DRV000210,U Kyaw Thu Soe,U Kyaw Thu Soe,09252268860,,9252268860,6520,7835,,,,,,,,,,,,,,,,,,,,,,,,
211,DRV000211,U Aung San Htoo,U Aung San Htoo,09798580720,,9798580720,9528,11300,,,,,,,,,,,,,,,,,,,,,,,,
212,DRV000212,U Htin Lin Thein,U Htin Lin Thein,9780450045,,9780450045,11150,10665,,,,,,,,,,,,,,,,,,,,,,,,
213,DRV000213,U Myo Thant,U Myo Thant,09250666160,,9250666160,20986,21290,,,,,,,,,,,,,,,,,,,,,,,,
214,DRV000214,U Myint Hlaing Tun,U Myint Hlaing Tun,09420014733,,9420014733,1309,1000,,,,,,,,,,,,,,,,,,,,,,,,
215,DRV000215,U Htet Aung,U Htet Aung,09421174003,,9421174003,5744.1,7232,,,,,,,,,,,,,,,,,,,,,,,,
216,DRV000216,U Aung Ko Myo,U Aung Ko Myo,09423616089,,9423616089,3491.75,5495,,,,,,,,,,,,,,,,,,,,,,,,
217,DRV000217,U Naing Zaw Tun,U Naing Zaw Tun,09976367069,,9976367069,950,5965,,,,,,,,,,,,,,,,,,,,,,,,
218,DRV000218,U Tun Oo,U Tun Oo,09974305983,,9974305983,6641,6755,,,,,,,,,,,,,,,,,,,,,,,,
219,DRV000219,U Kyaw Myo Htet,U Kyaw Myo Htet,09421036707,,9421036707,1500,1000,,,,,,,,,,,,,,,,,,,,,,,,
220,DRV000220,U Phone Kywe Oo,U Phone Kywe Oo,09450975256,,9450975256,3976.5,2060,,,,,,,,,,,,,,,,,,,,,,,,
221,DRV000221,U Win Aung,U Win Aung,09799559056,,9799559056,5153.64,10359.64,,,,,,,,,,,,,,,,,,,,,,,,
222,DRV000222,U Thein Htike,U Thein Htike,09420327447,,9420327447,5405,9045,,,,,,,,,,,,,,,,,,,,,,,,
223,DRV000223,U Yan Nyein Chan Aung,U Yan Nyein Chan Aung,09261072117,,9261072117,14700,14700,,,,,,,,,,,,,,,,,,,,,,,,
224,DRV000224,U Zaw Latt,U Zaw Latt,0943070550,,943070550,7470,7470,,,,,,,,,,,,,,,,,,,,,,,,
225,DRV000225,U Than Hlaing,U Than Hlaing,09252619193,,9252619193,13375,13375,,,,,,,,,,,,,,,,,,,,,,,,
226,DRV000226,U Pau Ka Suan Sian,U Pau Ka Suan Sian,09976384448,,9976384448,14700,14700,,,,,,,,,,,,,,,,,,,,,,,,
227,DRV000227,U Khin Mg Kyaw,U Khin Mg Kyaw,09421089290,,9421089290,12975,13575,,,,,,,,,,,,,,,,,,,,,,,,
228,DRV000228,U Zaw Lay Tun,U Zaw Lay Tun,09253519119,,9253519119,2497,5255,,,,,,,,,,,,,,,,,,,,,,,,
229,DRV000229,U Soe Moe Han,U Soe Moe Han,09420215571,,9420215571,12655,12655,,,,,,,,,,,,,,,,,,,,,,,,
230,DRV000230,U Ko Ko Oo,U Ko Ko Oo,09777445717,,9777445717,13360,13360,,,,,,,,,,,,,,,,,,,,,,,,
231,DRV000231,U Kyaw San Oo,U Kyaw San Oo,"09420010105
0943124565",,9420010105,2585,2585,,,,,,,,,,,,,,,,,,,,,,,,
232,DRV000232,U Aung Swe Win,U Aung Swe Win,09254148686,,9254148686,26870,26870,,,,,,,,,,,,,,,,,,,,,,,,
233,DRV000233,U Kyaw Win Than,U Kyaw Win Than,09795308192,,9795308192,21385,21385,,,,,,,,,,,,,,,,,,,,,,,,
234,DRV000234,U Soe Min Htay,U Soe Min Htay,0943071008,,943071008,15000,15000,,,,,,,,,,,,,,,,,,,,,,,,
235,DRV000235,U Nay Win Tun,U Nay Win Tun,09422045984,,9422045984,8220,8220,,,,,,,,,,,,,,,,,,,,,,,,
236,DRV000236,U Zaw Htay,U Zaw Htay,09450212646,,9450212646,1258,1000,,,,,,,,,,,,,,,,,,,,,,,,
237,DRV000237,Than Tun Aung,Than Tun Aung,09456851631,,9456851631,413.25,1025,,,,,,,,,,,,,,,,,,,,,,,,
238,DRV000238,U Nay Lin Aung,U Nay Lin Aung,09978876467,,9978876467,1500,1000,,,,,,,,,,,,,,,,,,,,,,,,
239,DRV000239,U Thet Zaw Hlaing,U Thet Zaw Hlaing,09420113962,,9420113962,4202,4630,,,,,,,,,,,,,,,,,,,,,,,,
240,DRV000240,U Zayar Thein,U Zayar Thein,09795003424,,9795003424,1661,9870,,,,,,,,,,,,,,,,,,,,,,,,
241,DRV000241,U Zay Yar Phyo Mg,U Zay Yar Phyo Mg,09423098522,,9423098522,8055,8055,,,,,,,,,,,,,,,,,,,,,,,,
242,DRV000242,U Aung Cho Oo,U Aung Cho Oo,09782206945,,9782206945,1307,4150,,,,,,,,,,,,,,,,,,,,,,,,
243,DRV000243,U Pyone Phone Maw,U Pyone Phone Maw,"095128862
09794359150",,9794359150,1500,1000,,,,,,,,,,,,,,,,,,,,,,,,
244,DRV000244,U Hla Moe Oo,U Hla Moe Oo,09250076324,,9250076324,1500,1000,,,,,,,,,,,,,,,,,,,,,,,,
245,DRV000245,U Tun Win Aung,U Tun Win Aung,09798342528,,9798342528,3955,8375,,,,,,,,,,,,,,,,,,,,,,,,
246,DRV000246,U Win Thein,U Win Thein,09786595476,,9786595476,46000,1000,,,,,,,,,,,,,,,,,,,,,,,,
247,DRV000247,U Hla Myint Zaw,U Hla Myint Zaw,"09799605770
09422928707",,9799605770,6920,6920,,,,,,,,,,,,,,,,,,,,,,,,
248,DRV000248,U Tun Tun Min,U Tun Tun Min,09423743458,,9423743458,3575,2155,,,,,,,,,,,,,,,,,,,,,,,,
249,DRV000249,U Khin Maung Ni,U Khin Maung Ni,09420061062,,9420061062,21487.25,23720,,,,,,,,,,,,,,,,,,,,,,,,
250,DRV000250,U Ye Htet,U Ye Htet,9420059678,,9420059678,2701.31,3804.31,,,,,,,,,,,,,,,,,,,,,,,,
251,DRV000251,U Myo Thant,U Myo Thant,09454913163,,9454913163,1300,5720,,,,,,,,,,,,,,,,,,,,,,,,
252,DRV000252,U Kyaw Myo Htet,U Kyaw Myo Htet,0930011109,,930011109,9500,7590,,,,,,,,,,,,,,,,,,,,,,,,
253,DRV000253,U Hlaing Thet Oo,U Hlaing Thet Oo,9785162589,,9785162589,6687,6915,,,,,,,,,,,,,,,,,,,,,,,,
254,DRV000254,U Zaw Myo Oo,U Zaw Myo Oo,09420054139,,9420054139,7110,7110,,,,,,,,,,,,,,,,,,,,,,,,
255,DRV000255,U Khin Maung Tun,U Khin Maung Tun,0943070125,,943070125,9685,9465,,,,,,,,,,,,,,,,,,,,,,,,
256,DRV000256,U Min Myo Latt,U Min Myo Latt,09254384656,,9254384656,2645.03,2645.03,,,,,,,,,,,,,,,,,,,,,,,,
257,DRV000257,U Than Htike Oo,U Than Htike Oo,09401640542,,9401640542,8035,6345,,,,,,,,,,,,,,,,,,,,,,,,
258,DRV000258,U Kyaw Swar Moe,U Kyaw Swar Moe,09976659539,,9976659539,1500,1000,,,,,,,,,,,,,,,,,,,,,,,,
259,DRV000259,U Moe Kyaw Aung,U Moe Kyaw Aung,09250657162,,9250657162,8970,8970,,,,,,,,,,,,,,,,,,,,,,,,
260,DRV000260,U Htike Lin,U Htike Lin,09254878705,,9254878705,2644,15195,,,,,,,,,,,,,,,,,,,,,,,,
261,DRV000261,U Win Kyi,U Win Kyi,09250271274,,9250271274,10110,10110,,,,,,,,,,,,,,,,,,,,,,,,
262,DRV000262,U That Naing Tun,U That Naing Tun,09420048365,,9420048365,4660,4660,,,,,,,,,,,,,,,,,,,,,,,,
263,DRV000263,U Kyaw Soe Lin,U Kyaw Soe Lin,"09420066799
9792828251",,9420066799,1400,5775,,,,,,,,,,,,,,,,,,,,,,,,
264,DRV000264,U Chit Ko Ko,U Chit Ko Ko,09403724140,,9403724140,1500,1590,,,,,,,,,,,,,,,,,,,,,,,,
265,DRV000265,U Shwe Min Kyaw,U Shwe Min Kyaw,09421721168,,9421721168,3854,3854,,,,,,,,,,,,,,,,,,,,,,,,
266,DRV000266,U Bo Tun,U Bo Tun,09254516926,,9254516926,1153,1000,,,,,,,,,,,,,,,,,,,,,,,,
267,DRV000267,U Hla Myo,U Hla Myo,09420062071,,9420062071,4105,1000,,,,,,,,,,,,,,,,,,,,,,,,
268,DRV000268,U Mg Mg Oo,U Mg Mg Oo,0973187625,,973187625,1500,1000,,,,,,,,,,,,,,,,,,,,,,,,
269,DRV000269,U Aung Kyaw Oo,U Aung Kyaw Oo,9252452016,,9252452016,1500,1000,,,,,,,,,,,,,,,,,,,,,,,,
270,DRV000270,U Hlaing Htun Min,U Hlaing Htun Min,09422375545,,9422375545,3517,3720,,,,,,,,,,,,,,,,,,,,,,,,
271,DRV000271,U Aye Tun,U Aye Tun,09768900166,,9768900166,4785,2510,,,,,,,,,,,,,,,,,,,,,,,,
272,DRV000272,U Aung Kyaw Oo,U Aung Kyaw Oo,"09975850035
09777988107",,9975850035,1775,1000,,,,,,,,,,,,,,,,,,,,,,,,
273,DRV000273,U Kyaw Kyaw Aung,U Kyaw Kyaw Aung,09254883051,,9254883051,908,1000,,,,,,,,,,,,,,,,,,,,,,,,
274,DRV000274,U Zaw Min Tun,U Zaw Min Tun,09455225749,,9455225749,15000,15000,,,,,,,,,,,,,,,,,,,,,,,,
275,DRV000275,U Myo Min Oo,U Myo Min Oo,09970036236,,9970036236,7685,7245,,,,,,,,,,,,,,,,,,,,,,,,
276,DRV000276,U Shwe Lin Tun,U Shwe Lin Tun,0973182722,,973182722,11965,11965,,,,,,,,,,,,,,,,,,,,,,,,
277,DRV000277,U Kyi Soe,U Kyi Soe,09425274966,,9425274966,14700,14700,,,,,,,,,,,,,,,,,,,,,,,,
278,DRV000278,U Sai Nyi Lin Aung,U Sai Nyi Lin Aung,09261605106,,9261605106,5370,6655,,,,,,,,,,,,,,,,,,,,,,,,
279,DRV000279,U Zay Yar Lin,U Zay Yar Lin,09420316161,,9420316161,15000,15000,,,,,,,,,,,,,,,,,,,,,,,,
280,DRV000280,U Aung Htwe,U Aung Htwe,09779921243,,9779921243,14400,14400,,,,,,,,,,,,,,,,,,,,,,,,
281,DRV000281,U Zaw Lin,U Zaw Lin,09420156696,,9420156696,13795,13795,,,,,,,,,,,,,,,,,,,,,,,,
282,DRV000282,U Ye Lin Naing,U Ye Lin Naing,09777365614,,9777365614,10345.87,8760.87,,,,,,,,,,,,,,,,,,,,,,,,
283,DRV000283,U Than Htike,U Than Htike,09450012034,,9450012034,4820,4920,,,,,,,,,,,,,,,,,,,,,,,,
284,DRV000284,U Myint Thein,U Myint Thein,09423734322,,9423734322,15000,15000,,,,,,,,,,,,,,,,,,,,,,,,
285,DRV000285,U San Aye,U San Aye,09450038358,,9450038358,1500,1000,,,,,,,,,,,,,,,,,,,,,,,,
286,DRV000286,U Than Zaw,U Than Zaw,09455223035,,9455223035,11985,11985,,,,,,,,,,,,,,,,,,,,,,,,
287,DRV000287,U Win Thein,U Win Thein,0973099666,,973099666,13800,13800,,,,,,,,,,,,,,,,,,,,,,,,
288,DRV000288,U Tin Zaw Latt,U Tin Zaw Latt,09425018444,,9425018444,10042,10540,,,,,,,,,,,,,,,,,,,,,,,,
289,DRV000289,U Myint Sein,U Myint Sein,09250279558,,9250279558,1555,1555,,,,,,,,,,,,,,,,,,,,,,,,
290,DRV000290,U Win Bo,U Win Bo,09252643988,,9252643988,4316,4565,,,,,,,,,,,,,,,,,,,,,,,,
291,DRV000291,U Kyaw Swar Aung San,U Kyaw Swar Aung San,09793362701,,9793362701,1303,1000,,,,,,,,,,,,,,,,,,,,,,,,
292,DRV000292,U Soe Moe Kyaw,U Soe Moe Kyaw,09425326292,,9425326292,11672,12490,,,,,,,,,,,,,,,,,,,,,,,,
293,DRV000293,U Aung Moe Oo,U Aung Moe Oo,095129441,,95129441,16800,16800,,,,,,,,,,,,,,,,,,,,,,,,
294,DRV000294,U Tayza Myo,U Tayza Myo,09254444676,,9254444676,4548,3295,,,,,,,,,,,,,,,,,,,,,,,,
295,DRV000295,U Naing Win Latt,U Naing Win Latt,09440073765,,9440073765,15290,15290,,,,,,,,,,,,,,,,,,,,,,,,
296,DRV000296,U Kyaw Swar Hlaing,U Kyaw Swar Hlaing,09782100482,,9782100482,9980,9980,,,,,,,,,,,,,,,,,,,,,,,,
297,DRV000297,U Tun Tun,U Tun Tun,09250365486,,9250365486,1805,1805,,,,,,,,,,,,,,,,,,,,,,,,
298,DRV000298,U Myo Ko Ko Oo,U Myo Ko Ko Oo,09420282552,,9420282552,5000,5000,,,,,,,,,,,,,,,,,,,,,,,,
299,DRV000299,U Myint Oo,U Myint Oo,09250016068,,9250016068,7800,7315,,,,,,,,,,,,,,,,,,,,,,,,
300,DRV000300,U Kyaw Lwin Oo,U Kyaw Lwin Oo,09797571271,,9797571271,6880,7775,,,,,,,,,,,,,,,,,,,,,,,,
301,DRV000301,U Htet Myat Naing,U Htet Myat Naing,9254108864,,9254108864,1350,2610,,,,,,,,,,,,,,,,,,,,,,,,
302,DRV000302,U Aung Pyae,U Aung Pyae,09421005893,,9421005893,1086,1000,,,,,,,,,,,,,,,,,,,,,,,,
303,DRV000303,U Htet Lin Kyaw,U Htet Lin Kyaw,9799604542,,9799604542,1500,1000,,,,,,,,,,,,,,,,,,,,,,,,
304,DRV000304,U Thein Oo,U Thein Oo,09795785020,,9795785020,9875,10090,,,,,,,,,,,,,,,,,,,,,,,,
305,DRV000305,U Myo Mg Mg,U Myo Mg Mg,09952003132,,9952003132,1625,1625,,,,,,,,,,,,,,,,,,,,,,,,
306,DRV000306,U Myint Oo,U Myint Oo,09969753544,,9969753544,15000,15000,,,,,,,,,,,,,,,,,,,,,,,,
307,DRV000307,U Zaw Min Htut,U Zaw Min Htut,09972135884,,9972135884,19700,19700,,,,,,,,,,,,,,,,,,,,,,,,
308,DRV000308,U Kyaw Kyaw,U Kyaw Kyaw,095197054,,95197054,13975,13975,,,,,,,,,,,,,,,,,,,,,,,,
309,DRV000309,U Zin Maung Maung,U Zin Maung Maung,09978767257,,9978767257,14365,14365,,,,,,,,,,,,,,,,,,,,,,,,
310,DRV000310,U Ko Ko Latt,U Ko Ko Latt,09974075067,,9974075067,1500,1000,,,,,,,,,,,,,,,,,,,,,,,,
311,DRV000311,U Thant Zin Aung,U Thant Zin Aung,09445677492,,9445677492,1500,1000,,,,,,,,,,,,,,,,,,,,,,,,
312,DRV000312,U Ye Ko,U Ye Ko,09254410354,,9254410354,15000,15000,,,,,,,,,,,,,,,,,,,,,,,,
313,DRV000313,U Mg Mg Hla,U Mg Mg Hla,09420259798,,9420259798,6780.89,7450.89,,,,,,,,,,,,,,,,,,,,,,,,
314,DRV000314,U Htein Lin Oo,U Htein Lin Oo,0943053170,,943053170,1500,1000,,,,,,,,,,,,,,,,,,,,,,,,
315,DRV000315,U Zaw Lwin,U Zaw Lwin,09261625656,,9261625656,1500,1000,,,,,,,,,,,,,,,,,,,,,,,,
316,DRV000316,U Zarni Htun,U Zarni Htun,09451056635,,9451056635,1765,1765,,,,,,,,,,,,,,,,,,,,,,,,
317,DRV000317,U Toe Thura Lwin,U Toe Thura Lwin,09798174413,,9798174413,6712,1405,,,,,,,,,,,,,,,,,,,,,,,,
318,DRV000318,U Mg Mg,U Mg Mg,"0930001905
0930001904",,930001905,5000,5000,,,,,,,,,,,,,,,,,,,,,,,,
319,DRV000319,U Aung Phyo,U Aung Phyo,09451852609,,9451852609,1500,1000,,,,,,,,,,,,,,,,,,,,,,,,
320,DRV000320,U Win Hlaing,U Win Hlaing,09254067144,,9254067144,15000,15000,,,,,,,,,,,,,,,,,,,,,,,,
321,DRV000321,U Khin Zaw Moe,U Khin Zaw Moe,09420075726,,9420075726,14700,14700,,,,,,,,,,,,,,,,,,,,,,,,
322,DRV000322,U Phyo Khaing,U Phyo Khaing,09421094442,,9421094442,15000,15000,,,,,,,,,,,,,,,,,,,,,,,,
323,DRV000323,U Sein Mg,U Sein Mg,09264552054,,9264552054,11155,10230,,,,,,,,,,,,,,,,,,,,,,,,
324,DRV000324,U Zaw Zaw Oo,U Zaw Zaw Oo,09791449244,,9791449244,36989,34085,,,,,,,,,,,,,,,,,,,,,,,,
325,DRV000325,U Aung Linn Soe,U Aung Linn Soe,095103144,,95103144,1500,1000,,,,,,,,,,,,,,,,,,,,,,,,
326,DRV000326,U Thiha Tun,U Thiha Tun,09795753797,,9795753797,27155,27155,,,,,,,,,,,,,,,,,,,,,,,,
327,DRV000327,U Myo Win Min,U Myo Win Min,9454345812,,9454345812,15871,15871,,,,,,,,,,,,,,,,,,,,,,,,
328,DRV000328,U Sein Win,U Sein Win,09421060174,,9421060174,5000,5000,,,,,,,,,,,,,,,,,,,,,,,,
329,DRV000329,U Soe Naing,U Soe Naing,9401562606,,9401562606,18352,17915,,,,,,,,,,,,,,,,,,,,,,,,
330,DRV000330,U Than Chaung,U Than Chaung,095018439,,95018439,6133.33,5295.33,,,,,,,,,,,,,,,,,,,,,,,,
331,DRV000331,U Yan Lin Aung,U Yan Lin Aung,09253407209,,9253407209,4251,1000,,,,,,,,,,,,,,,,,,,,,,,,
332,DRV000332,U Nay Win,U Nay Win,9254310619,,9254310619,7867,7867,,,,,,,,,,,,,,,,,,,,,,,,
333,DRV000333,U Aung Naing Win,U Aung Naing Win,09964205278,,9964205278,14445,14445,,,,,,,,,,,,,,,,,,,,,,,,
334,DRV000334,U Kyaw Kyaw Naung,U Kyaw Kyaw Naung,9773433500,,9773433500,12188.16,8623.16,,,,,,,,,,,,,,,,,,,,,,,,
335,DRV000335,U Kan Htun,U Kan Htun,9254322922,,9254322922,9600,9555,,,,,,,,,,,,,,,,,,,,,,,,
336,DRV000336,U Kyaw Lwin,U Kyaw Lwin,09260206116,,9260206116,5363,5561,,,,,,,,,,,,,,,,,,,,,,,,
337,DRV000337,U Win Thura Soe,U Win Thura Soe,09791232492,,9791232492,1500,1000,,,,,,,,,,,,,,,,,,,,,,,,
338,DRV000338,U Khin Mg Ye,U Khin Mg Ye,09799982184,,9799982184,8460,1000,,,,,,,,,,,,,,,,,,,,,,,,
339,DRV000339,U Kyaw Mon,U Kyaw Mon,09442496754,,9442496754,14900,14900,,,,,,,,,,,,,,,,,,,,,,,,
340,DRV000340,U Phyo Arkar Min,U Phyo Arkar Min,09975923173,,9975923173,13265,13265,,,,,,,,,,,,,,,,,,,,,,,,
341,DRV000341,U Hein Ko Ko Htet,U Hein Ko Ko Htet,09250370604,,9250370604,1826,1826,,,,,,,,,,,,,,,,,,,,,,,,
342,DRV000342,U Sein Hla Myint,U Sein Hla Myint,09771410646,,9771410646,14090,14090,,,,,,,,,,,,,,,,,,,,,,,,
343,DRV000343,U Win Min Tun ,U Win Min Tun,09458646273,,9458646273,3495,3745,,,,,,,,,,,,,,,,,,,,,,,,
344,DRV000344,U Yan Paing Win,U Yan Paing Win,09966943154,,9966943154,18565,18135,,,,,,,,,,,,,,,,,,,,,,,,
345,DRV000345,U Min Thu,U Min Thu,09254070461,,9254070461,12430,12530,,,,,,,,,,,,,,,,,,,,,,,,
346,DRV000346,U Thant Zin,U Thant Zin,09250371927,,9250371927,2725,2340,,,,,,,,,,,,,,,,,,,,,,,,
347,DRV000347,U San Myint,U San Myint,09795687056,,9795687056,1700,1700,,,,,,,,,,,,,,,,,,,,,,,,
348,DRV000348,U Aung Myo Naing,U Aung Myo Naing,09250043252,,9250043252,9427,9195,,,,,,,,,,,,,,,,,,,,,,,,
349,DRV000349,U Aung Aung,U Aung Aung,09778104669,,9778104669,2655,2655,,,,,,,,,,,,,,,,,,,,,,,,
350,DRV000350,U Aung Naing Myint,U Aung Naing Myint,09421900757,,9421900757,432,1000,,,,,,,,,,,,,,,,,,,,,,,,
351,DRV000351,U Soe Moe Kyaw,U Soe Moe Kyaw,09420087732,,9420087732,1231,1735,,,,,,,,,,,,,,,,,,,,,,,,
352,DRV000352,U Aung Phyo Paing,U Aung Phyo Paing,09795097767,,9795097767,1500,1000,,,,,,,,,,,,,,,,,,,,,,,,
353,DRV000353,U Ar Kar,U Ar Kar,09971029036,,9971029036,1500,1395,,,,,,,,,,,,,,,,,,,,,,,,
354,DRV000354,U Tun Min,U Tun Min,09420937313,,9420937313,6505,6605,,,,,,,,,,,,,,,,,,,,,,,,
355,DRV000355,U Bo Bo Aung,U Bo Bo Aung,09420039767,,9420039767,2355,1910,,,,,,,,,,,,,,,,,,,,,,,,
356,DRV000356,U Than Soe Tun,U Than Soe Tun,09263113297,,9263113297,18845,18845,,,,,,,,,,,,,,,,,,,,,,,,
357,DRV000357,U Paing Moe Oo,U Paing Moe Oo,0943052398,,943052398,3735,3735,,,,,,,,,,,,,,,,,,,,,,,,
358,DRV000358,U Win Min Htike,U Win Min Htike,09262346662,,9262346662,11840,12090,,,,,,,,,,,,,,,,,,,,,,,,
359,DRV000359,U Kyaw Soe Win,U Kyaw Soe Win,09428019662,,9428019662,21770,22270,,,,,,,,,,,,,,,,,,,,,,,,
360,DRV000360,U Yan Lin Aung,U Yan Lin Aung,09262386477,,9262386477,1500,1000,,,,,,,,,,,,,,,,,,,,,,,,
361,DRV000361,U Myint Aung,U Myint Aung,095177052,,95177052,1500,1000,,,,,,,,,,,,,,,,,,,,,,,,
362,DRV000362,U Kyi Lwin,U Kyi Lwin,09795657200,,9795657200,3195,1310,,,,,,,,,,,,,,,,,,,,,,,,
363,DRV000363,U Kaing Zar Lin,U Kaing Zar Lin,09263969223,,9263969223,1500,1000,,,,,,,,,,,,,,,,,,,,,,,,
364,DRV000364,U Tun Myint Thein,U Tun Myint Thein,09261615851,,9261615851,11990,12750,,,,,,,,,,,,,,,,,,,,,,,,
365,DRV000365,U Kyaw Than Htay,U Kyaw Than Htay,09420055622,,9420055622,1500,1000,,,,,,,,,,,,,,,,,,,,,,,,
366,DRV000366,U Myo Hein,U Myo Hein,09421036026,,9421036026,5955,5955,,,,,,,,,,,,,,,,,,,,,,,,
367,DRV000367,U Win Naing Htwe,U Win Naing Htwe,09450038672,,9450038672,7470,7470,,,,,,,,,,,,,,,,,,,,,,,,
368,DRV000368,U Nyi Nyi Lwin,U Nyi Nyi Lwin,09420701160,,9420701160,15000,15000,,,,,,,,,,,,,,,,,,,,,,,,
369,DRV000369,U Aung Kyaw Thu,U Aung Kyaw Thu,0943040191,,943040191,8260,8260,,,,,,,,,,,,,,,,,,,,,,,,
370,DRV000370,U Aye Myint,U Aye Myint,09258123547,,9258123547,3535,3535,,,,,,,,,,,,,,,,,,,,,,,,
371,DRV000371,U Than Zaw,U Than Zaw,09452289182,,9452289182,1183,1000,,,,,,,,,,,,,,,,,,,,,,,,
372,DRV000372,U Ko Ko Naing,U Ko Ko Naing,09262398739,,9262398739,20780,20935,,,,,,,,,,,,,,,,,,,,,,,,
373,DRV000373,U Tun Tun Aung,U Tun Tun Aung,09795527512,,9795527512,5735,5835,,,,,,,,,,,,,,,,,,,,,,,,
374,DRV000374,U Win Ko,U Win Ko,09454545054,,9454545054,5535,5215,,,,,,,,,,,,,,,,,,,,,,,,
375,DRV000375,U Tin Soe,U Tin Soe,09798509367,,9798509367,13100,13100,,,,,,,,,,,,,,,,,,,,,,,,
376,DRV000376,U Soe Myint,U Soe Myint,09420044845,,9420044845,25000,25000,,,,,,,,,,,,,,,,,,,,,,,,
377,DRV000377,U Thet Zin Htay,U Thet Zin Htay,0931995693,,931995693,1500,1000,,,,,,,,,,,,,,,,,,,,,,,,
378,DRV000378,U Min Tun Oo,U Min Tun Oo,09250362910,,9250362910,1500,1000,,,,,,,,,,,,,,,,,,,,,,,,
379,DRV000379,U Kyaw Zin,U Kyaw Zin,09252600691,,9252600691,2195,2195,,,,,,,,,,,,,,,,,,,,,,,,
380,DRV000380,U Wai Yan Aung,U Wai Yan Aung,09799567123,,9799567123,4830,4830,,,,,,,,,,,,,,,,,,,,,,,,
381,DRV000381,U Soe Min,U Soe Min,09420291962,,9420291962,10615,10615,,,,,,,,,,,,,,,,,,,,,,,,
382,DRV000382,U Than Naing Win,U Than Naing Win,09254211170,,9254211170,14280,14280,,,,,,,,,,,,,,,,,,,,,,,,
383,DRV000383,U Bo Bo Han,U Bo Bo Han,09258123454,,9258123454,9440,9440,,,,,,,,,,,,,,,,,,,,,,,,
384,DRV000384,U Kyaw Soe Htike,U Kyaw Soe Htike,09253936779,,9253936779,14550,14550,,,,,,,,,,,,,,,,,,,,,,,,
385,DRV000385,U Kyi Soe Moe,U Kyi Soe Moe,09423723059,,9423723059,3425.75,1000,,,,,,,,,,,,,,,,,,,,,,,,
386,DRV000386,U Aung Htoo,U Aung Htoo,09421141371,,9421141371,7735,7935,,,,,,,,,,,,,,,,,,,,,,,,
387,DRV000387,U Kyaw Thu,U Kyaw Thu,09254140261,,9254140261,15965,15965,,,,,,,,,,,,,,,,,,,,,,,,
388,DRV000388,U Kyaw Kyaw Aung,U Kyaw Kyaw Aung,09780999577,,9780999577,15000,15000,,,,,,,,,,,,,,,,,,,,,,,,
389,DRV000389,U Saw Win Zaw,U Saw Win Zaw,09420656114,,9420656114,15000,15000,,,,,,,,,,,,,,,,,,,,,,,,
390,DRV000390,U Aye Ko,U Aye Ko,09448037604,,9448037604,7600,7700,,,,,,,,,,,,,,,,,,,,,,,,
391,DRV000391,U Soe Min Than,U Soe Min Than,09960800097,,9960800097,1500,1000,,,,,,,,,,,,,,,,,,,,,,,,
392,DRV000392,U Tin Aung Hein,U Tin Aung Hein,09788881281,,9788881281,15000,15000,,,,,,,,,,,,,,,,,,,,,,,,
393,DRV000393,U San Shwe Nyunt,U San Shwe Nyunt,09260398089,,9260398089,7341.5,14100,,,,,,,,,,,,,,,,,,,,,,,,
394,DRV000394,U Tin Win Aung,U Tin Win Aung,09250681756,,9250681756,13895,13995,,,,,,,,,,,,,,,,,,,,,,,,
395,DRV000395,U Myint Sein,U Myint Sein,09453082870,,9453082870,14700,14700,,,,,,,,,,,,,,,,,,,,,,,,
396,DRV000396,U Aung Naing Oo,U Aung Naing Oo,09798191848,,9798191848,15000,15000,,,,,,,,,,,,,,,,,,,,,,,,
397,DRV000397,U Htay Win,U Htay Win,09443900728,,9443900728,1500,1000,,,,,,,,,,,,,,,,,,,,,,,,
398,DRV000398,U Maung Maung Lwin,U Maung Maung Lwin,0973111357,,973111357,1500,1000,,,,,,,,,,,,,,,,,,,,,,,,
399,DRV000399,U Phone Myat Swe,U Phone Myat Swe,09779934142,,9779934142,13500,13500,,,,,,,,,,,,,,,,,,,,,,,,
400,DRV000400,U Tun Min Latt,U Tun Min Latt,09420117049,,9420117049,3965,3965,,,,,,,,,,,,,,,,,,,,,,,,
401,DRV000401,U Aung Naing,U Aung Naing,09422996075,,9422996075,13600,15515,,,,,,,,,,,,,,,,,,,,,,,,
402,DRV000402,U Mg Mg San,U Mg Mg San,0943118532,,943118532,4091.76,1000,,,,,,,,,,,,,,,,,,,,,,,,
403,DRV000403,U Naing Moe,U Naing Moe,09264846681,,9264846681,1300,7356,,,,,,,,,,,,,,,,,,,,,,,,
404,DRV000404,U San Myint,U San Myint,09775464869,,9775464869,1359,6500,,,,,,,,,,,,,,,,,,,,,,,,
405,DRV000405,U Thein Than Tun,U Thein Than Tun,09963414747,,9963414747,970,12675,,,,,,,,,,,,,,,,,,,,,,,,
406,DRV000406,U Kyaw Thu Htun,U Kyaw Thu Htun,09798233260,,9798233260,8024,6745,,,,,,,,,,,,,,,,,,,,,,,,
407,DRV000407,U Win Naing,U Win Naing,0931038869,,931038869,7000,1000,,,,,,,,,,,,,,,,,,,,,,,,
408,DRV000408,U Myint Oo,U Myint Oo,09250005724,,9250005724,3050,3050,,,,,,,,,,,,,,,,,,,,,,,,
409,DRV000409,U Saw Baby John,U Saw Baby John,09975796040,,9975796040,5171,5171,,,,,,,,,,,,,,,,,,,,,,,,
410,DRV000410,U Win Lwin,U Win Lwin,095049569,,95049569,1092,2005,,,,,,,,,,,,,,,,,,,,,,,,
411,DRV000411,U Hlaing Min Thant,U Hlaing Min Thant,09454445712,,9454445712,1292,3990,,,,,,,,,,,,,,,,,,,,,,,,
412,DRV000412,U Tun Lin Tun,U Tun Lin Tun,09420266511,,9420266511,4094,2055,,,,,,,,,,,,,,,,,,,,,,,,
413,DRV000413,U Tin Htay,U Tin Htay,09799473880,,9799473880,9760,9760,,,,,,,,,,,,,,,,,,,,,,,,
414,DRV000414,U Aung Htoo Myint,U Aung Htoo Myint,09421009496,,9421009496,981,22011,,,,,,,,,,,,,,,,,,,,,,,,
415,DRV000415,U Win Mg Mg,U Win Mg Mg,9262276841,,9262276841,4293.62,4644.62,,,,,,,,,,,,,,,,,,,,,,,,
416,DRV000416,U Thant Zin Tun,U Thant Zin Tun,09444439630,,9444439630,2965,2965,,,,,,,,,,,,,,,,,,,,,,,,
417,DRV000417,U Naing Than Tun,U Naing Than Tun,09782761799,,9782761799,9710,8780,,,,,,,,,,,,,,,,,,,,,,,,
418,DRV000418,U Kyaw Zin Thant,U Kyaw Zin Thant,09777551164,,9777551164,1500,1000,,,,,,,,,,,,,,,,,,,,,,,,
419,DRV000419,U Htay Win Soe,U Htay Win Soe,0931289045,,931289045,8950,8950,,,,,,,,,,,,,,,,,,,,,,,,
420,DRV000420,U Kyaw Swar Win,U Kyaw Swar Win,09255728770,,9255728770,6460,6460,,,,,,,,,,,,,,,,,,,,,,,,
421,DRV000421,U Pyae Phyo Naung,U Pyae Phyo Naung,09261040082,,9261040082,12230,2755,,,,,,,,,,,,,,,,,,,,,,,,
422,DRV000422,U Tun Aung Kyaw,U Tun Aung Kyaw,09764550637,,9764550637,15000,15000,,,,,,,,,,,,,,,,,,,,,,,,
423,DRV000423,U Aung Naing Win,U Aung Naing Win,09421090133,,9421090133,14025,14025,,,,,,,,,,,,,,,,,,,,,,,,
424,DRV000424,U Aye Htut Aung,U Aye Htut Aung,09798111956,,9798111956,13370,13370,,,,,,,,,,,,,,,,,,,,,,,,
425,DRV000425,U Aung Kyin Min,U Aung Kyin Min,"095025130
0973057391",,973057391,10916.47,9753.47,,,,,,,,,,,,,,,,,,,,,,,,
426,DRV000426,U Aung Si Thu,U Aung Si Thu,09968134663,,9968134663,10700,11915,,,,,,,,,,,,,,,,,,,,,,,,
427,DRV000427,U Zaw Myo Aung,U Zaw Myo Aung,09795975385,,9795975385,12230,2755,,,,,,,,,,,,,,,,,,,,,,,,
428,DRV000428,U Than Tun Oo,U Than Tun Oo,09798422304,,9798422304,2875,2875,,,,,,,,,,,,,,,,,,,,,,,,
429,DRV000429, U Htut Myat Soe, U Htut Myat Soe,09795298242,,9795298242,6814,7100,,,,,,,,,,,,,,,,,,,,,,,,
430,DRV000430,U Aung Myat  Soe,U Aung Myat  Soe,09254417653,,9254417653,7230,7230,,,,,,,,,,,,,,,,,,,,,,,,
431,DRV000431,U Kyi Win,U Kyi Win,09262426262,,9262426262,9895,9895,,,,,,,,,,,,,,,,,,,,,,,,
432,DRV000432,U Soe Thein,U Soe Thein,0949295479,,949295479,13365,13160,,,,,,,,,,,,,,,,,,,,,,,,
433,DRV000433,U Zarni Myo Aung,U Zarni Myo Aung,095044661,,95044661,7965,8080,,,,,,,,,,,,,,,,,,,,,,,,
434,DRV000434,U Tint Naing Soe,U Tint Naing Soe,09260585581,,9260585581,15000,15000,,,,,,,,,,,,,,,,,,,,,,,,
435,DRV000435,U Wai Phyo Maung,U Wai Phyo Maung,09799952482,,9799952482,3835,4000,,,,,,,,,,,,,,,,,,,,,,,,
436,DRV000436,U Aung Ko,U Aung Ko,09974917701,,9974917701,11645,11645,,,,,,,,,,,,,,,,,,,,,,,,
437,DRV000437,U Thant Zaw Tun,U Thant Zaw Tun,09428726530,,9428726530,12665,12665,,,,,,,,,,,,,,,,,,,,,,,,
438,DRV000438,U Ye Lin Tun,U Ye Lin Tun,09450703972,,9450703972,1725,1725,,,,,,,,,,,,,,,,,,,,,,,,
439,DRV000439,U Nay Tun Lin,U Nay Tun Lin,09450057753,,9450057753,12460,12460,,,,,,,,,,,,,,,,,,,,,,,,
440,DRV000440,U Khaing Zaw Lin,U Khaing Zaw Lin,09453304824,,9453304824,14700,14700,,,,,,,,,,,,,,,,,,,,,,,,
441,DRV000441,U Min Zaw Win,U Min Zaw Win,09424973214,,9424973214,28500,28500,,,,,,,,,,,,,,,,,,,,,,,,
442,DRV000442,U Win Bo Bo,U Win Bo Bo,09799736833,,9799736833,14770,15000,,,,,,,,,,,,,,,,,,,,,,,,
443,DRV000443,U Moe Swe,U Moe Swe,09444898288,,9444898288,12025,12025,,,,,,,,,,,,,,,,,,,,,,,,
444,DRV000444,U Tin Tun Aung,U Tin Tun Aung,09794080744,,9794080744,8185,8445,,,,,,,,,,,,,,,,,,,,,,,,
445,DRV000445,U Kyaw Swar ,U Kyaw Swar ,09962030807,,9962030807,12501,13765,,,,,,,,,,,,,,,,,,,,,,,,
446,DRV000446,U Nay Lin Oo,U Nay Lin Oo,09425645335,,9425645335,2250,2350,,,,,,,,,,,,,,,,,,,,,,,,
447,DRV000447,U Ye Tun,U Ye Tun,09263941949,,9263941949,15000,15000,,,,,,,,,,,,,,,,,,,,,,,,
448,DRV000448,U Thein Shwe,U Thein Shwe,09420150910,,9420150910,15000,15000,,,,,,,,,,,,,,,,,,,,,,,,
449,DRV000449,U Zaw Min Oo,U Zaw Min Oo,0943208496,,943208496,14729,15000,,,,,,,,,,,,,,,,,,,,,,,,
450,DRV000450,U Si Thu Soe,U Si Thu Soe,09254254552,,9254254552,14700,14700,,,,,,,,,,,,,,,,,,,,,,,,
451,DRV000451,U Myo Min Aung,U Myo Min Aung,09785010510,,9785010510,15000,15000,,,,,,,,,,,,,,,,,,,,,,,,
452,DRV000452,U Than Swe,U Than Swe,0931586960,,931586960,15000,15000,,,,,,,,,,,,,,,,,,,,,,,,
453,DRV000453,U Min Zaw,U Min Zaw,09780054943,,9780054943,15000,15000,,,,,,,,,,,,,,,,,,,,,,,,
454,DRV000454,U Zaw Thu Rain Win,U Zaw Thu Rain Win,09770487300,,9770487300,15000,15000,,,,,,,,,,,,,,,,,,,,,,,,
455,DRV000455,U Kyaw Kyaw Min,U Kyaw Kyaw Min,095123863,,95123863,15000,15000,,,,,,,,,,,,,,,,,,,,,,,,
456,DRV000456,U Khin Maung Than,U Khin Maung Than,09795206347,,9795206347,12760,12760,,,,,,,,,,,,,,,,,,,,,,,,
457,DRV000457,U Kyaw Kyaw Win,U Kyaw Kyaw Win,0943057535,,943057535,14700,14700,,,,,,,,,,,,,,,,,,,,,,,,
458,DRV000458,U Ko Ko Hlaing,U Ko Ko Hlaing,09451554909,,9451554909,2602.25,1000,,,,,,,,,,,,,,,,,,,,,,,,
459,DRV000459,U Tun Tun,U Tun Tun,09260918173,,9420014811,4580.34,1600.34,,,,,,,,,,,,,,,,,,,,,,,,
460,DRV000460,U Maung Thaung,U Maung Thaung,0943040302,,943040302,3701.63,2721.63,,,,,,,,,,,,,,,,,,,,,,,,
461,DRV000461,U Aung Myo Khaing,U Aung Myo Khaing,09422263522,,9422263522,6625,5660,,,,,,,,,,,,,,,,,,,,,,,,
462,DRV000462,U Aung Than Htut,U Aung Than Htut,095403562,,95403562,5387.05,5387.05,,,,,,,,,,,,,,,,,,,,,,,,
463,DRV000463,U Zay Lin Kyaw,U Zay Lin Kyaw,09260018188,,9260018188,3635,6200,,,,,,,,,,,,,,,,,,,,,,,,
464,DRV000464,U Aye Thein,U Aye Thein,09777366223,,9777366223,22610,22610,,,,,,,,,,,,,,,,,,,,,,,,
465,DRV000465,U Zaw Min,U Zaw Min,09254546745,,9254546745,8102,1620,,,,,,,,,,,,,,,,,,,,,,,,
466,DRV000466,U Nay Lin Aung,U Nay Lin Aung,09798114932,,9798114932,5955,4960,,,,,,,,,,,,,,,,,,,,,,,,
467,DRV000467,U Thet Lin Soe,U Thet Lin Soe,09263140030 09782997199,,9263140030,11399,11499,,,,,,,,,,,,,,,,,,,,,,,,
468,DRV000468,U Aung Thein Tun,U Aung Thein Tun,09961628266,,9961628266,13437,13455,,,,,,,,,,,,,,,,,,,,,,,,
469,DRV000469,U Than Kyaw Oo,U Than Kyaw Oo,09254785829,,9254785829,2230,8850,,,,,,,,,,,,,,,,,,,,,,,,
470,DRV000470,U Aung Thura,U Aung Thura,9421742814,,9421742814,7759,10770,,,,,,,,,,,,,,,,,,,,,,,,
471,DRV000471,U Zaw Min Oo,U Zaw Min Oo,09971577567,,9971577567,861,1000,,,,,,,,,,,,,,,,,,,,,,,,
472,DRV000472,U Tun Tun Lwin,U Tun Tun Lwin,09421112140,,9421112140,7692,9480,,,,,,,,,,,,,,,,,,,,,,,,
473,DRV000473,U Kyaw San Win,U Kyaw San Win,09799547433,,9799547433,10058,9395,,,,,,,,,,,,,,,,,,,,,,,,
474,DRV000474,U Maung Aye,U Maung Aye,9421384418,,9421384418,1500,1000,,,,,,,,,,,,,,,,,,,,,,,,
475,DRV000475,U Kyaw Kyaw Oo,U Kyaw Kyaw Oo,09450039811,,9450039811,8510,1000,,,,,,,,,,,,,,,,,,,,,,,,
476,DRV000476,U Win Htut Oo,U Win Htut Oo,09444811338,,9444811338,1000,1000,,,,,,,,,,,,,,,,,,,,,,,,
477,DRV000477,U Hein Myo Latt,U Hein Myo Latt,09798456560,,9798456560,-4669,4025,,,,,,,,,,,,,,,,,,,,,,,,
478,DRV000478,U Aung Thu Hein,U Aung Thu Hein,09975090666,,9975090666,15000,11286,,,,,,,,,,,,,,,,,,,,,,,,
479,DRV000479,U Soe Khaing Min,U Soe Khaing Min,09420223994,,9420223994,6687,6890,,,,,,,,,,,,,,,,,,,,,,,,
480,DRV000480,U Thet Paing Hmuee,U Thet Paing Hmuee,09781750164,,9781750164,5260,10260,,,,,,,,,,,,,,,,,,,,,,,,
481,DRV000481,U Ye Myint Tun,U Ye Myint Tun,09777241285,,9777241285,8325,8975,,,,,,,,,,,,,,,,,,,,,,,,
482,DRV000482,U Aung Myint Tun,U Aung Myint Tun,09254179770,,9254179770,8355,15475,,,,,,,,,,,,,,,,,,,,,,,,
483,DRV000483,U Aung San Soe,U Aung San Soe,094202181304,,94202181304,5220,5220,,,,,,,,,,,,,,,,,,,,,,,,
484,DRV000484,U San Win,U San Win,09979476404,,9979476404,13010,13010,,,,,,,,,,,,,,,,,,,,,,,,
485,DRV000485,U Win Kyaw,U Win Kyaw,09420118757,,9420118757,15000.91,15000.91,,,,,,,,,,,,,,,,,,,,,,,,
486,DRV000486,U Myint Htay,U Myint Htay,0932468385,,932468385,6440,6440,,,,,,,,,,,,,,,,,,,,,,,,
487,DRV000487,U Myint Lwin,U Myint Lwin,09780800487,,9780800487,15000,15000,,,,,,,,,,,,,,,,,,,,,,,,
488,DRV000488,U Min Aung,U Min Aung,09260985517,,9260985517,12810,12810,,,,,,,,,,,,,,,,,,,,,,,,
489,DRV000489,U Kyaw Kyaw,U Kyaw Kyaw,09256312884,,9256312884,14700,14700,,,,,,,,,,,,,,,,,,,,,,,,
490,DRV000490,U Myo Thu,U Myo Thu,09792446389,,9792446389,15000,15000,,,,,,,,,,,,,,,,,,,,,,,,
491,DRV000491,U Min Zaw,U Min Zaw,09795898534,,9795898534,14895,14895,,,,,,,,,,,,,,,,,,,,,,,,
492,DRV000492,U Soe Lin Oo,U Soe Lin Oo,09422423060,,9422423060,14700,14700,,,,,,,,,,,,,,,,,,,,,,,,
493,DRV000493,U San Win,U San Win,0973042274,,973042274,15000,15000,,,,,,,,,,,,,,,,,,,,,,,,
494,DRV000494,U Naing Win Aung,U Naing Win Aung,09793008982,,9793008982,15000,15000,,,,,,,,,,,,,,,,,,,,,,,,
495,DRV000495,U Myo Aung,U Myo Aung,09799505650,,9799505650,14700,14700,,,,,,,,,,,,,,,,,,,,,,,,
496,DRV000496,U Zaw Min Tun,U Zaw Min Tun,09250278246,,9250278246,15000,15000,,,,,,,,,,,,,,,,,,,,,,,,
497,DRV000497,U Min Aung,U Min Aung,0930077160,,930077160,1300,1000,,,,,,,,,,,,,,,,,,,,,,,,
498,DRV000498,U Yan Naing Tun,U Yan Naing Tun,09799498477,,9799498477,15000,15000,,,,,,,,,,,,,,,,,,,,,,,,
499,DRV000499,U Win Zaw Myint,U Win Zaw Myint,09450036905,,9450036905,14215,14215,,,,,,,,,,,,,,,,,,,,,,,,
500,DRV000500,U Aung Ko Oo,U Aung Ko Oo,09444505565,,9444505565,14700,14700,,,,,,,,,,,,,,,,,,,,,,,,
501,DRV000501,U Myo Lwin Oo,U Myo Lwin Oo,09425352398,,9425352398,14700,14700,,,,,,,,,,,,,,,,,,,,,,,,
502,DRV000502,U Hla Thein Htwe,U Hla Thein Htwe,09791497372,,9791497372,14700,14700,,,,,,,,,,,,,,,,,,,,,,,,
503,DRV000503,U Kyaw Min Tun,U Kyaw Min Tun,09450007899,,9450007899,11245,11245,,,,,,,,,,,,,,,,,,,,,,,,
504,DRV000504,U Ye Aung,U Ye Aung,09799945501,,9799945501,8468,2580,,,,,,,,,,,,,,,,,,,,,,,,
505,DRV000505,U Saw Jaw Fel Lal Win,U Saw Jaw Fel Lal Win,09420082843,,9420082843,15000,15000,,,,,,,,,,,,,,,,,,,,,,,,
506,DRV000506,U Zaw Moe,U Zaw Moe,09420185391,,9420185391,14400,14400,,,,,,,,,,,,,,,,,,,,,,,,
507,DRV000507,U Zin Bo,U Zin Bo,09450033659,,9450033659,1500,1000,,,,,,,,,,,,,,,,,,,,,,,,
508,DRV000508,U Aung Naing Oo,U Aung Naing Oo,0943185556,,943185556,1500,1000,,,,,,,,,,,,,,,,,,,,,,,,
509,DRV000509,U Maung Maung Aung,U Maung Maung Aung,09253250395,,9253250395,15000,15000,,,,,,,,,,,,,,,,,,,,,,,,
510,DRV000510,U Soe Moe Naing,U Soe Moe Naing,0943088336,,943088336,7090,7090,,,,,,,,,,,,,,,,,,,,,,,,
511,DRV000511,U Kyaw Min Lwin,U Kyaw Min Lwin,0973206390,,973206390,6365,3835,,,,,,,,,,,,,,,,,,,,,,,,
512,DRV000512,U Wai Htoo Maung,U Wai Htoo Maung,09798148321,,9798148321,11000,11000,,,,,,,,,,,,,,,,,,,,,,,,
513,DRV000513,U Hein Min Thu,U Hein Min Thu,09250811622,,9250811622,1500,1000,,,,,,,,,,,,,,,,,,,,,,,,
514,DRV000514,U Kyaw Win Than,U Kyaw Win Than,09420062705,,9420062705,2215,1000,,,,,,,,,,,,,,,,,,,,,,,,
515,DRV000515,U Win Myo Thaung,U Win Myo Thaung,09799591923,,9799591923,11420.2,11420.2,,,,,,,,,,,,,,,,,,,,,,,,
516,DRV000516,U Zin Min Aung,U Zin Min Aung,09769098147,,9769098147,11715,11715,,,,,,,,,,,,,,,,,,,,,,,,
517,DRV000517,U Kyaw San Tin,U Kyaw San Tin,095104712,,95104712,14100,14100,,,,,,,,,,,,,,,,,,,,,,,,
518,DRV000518,U Nay Myo Aung,U Nay Myo Aung,09972668006,,9972668006,14900,15000,,,,,,,,,,,,,,,,,,,,,,,,
519,DRV000519,U Naing Min OO,U Naing Min OO,09960954848,,9960954848,15000,15000,,,,,,,,,,,,,,,,,,,,,,,,
520,DRV000520,U Pyi Thar Hein,U Pyi Thar Hein,09765162509,,9765162509,15000,15000,,,,,,,,,,,,,,,,,,,,,,,,
521,DRV000521,U Tun Win,U Tun Win,095049706,,95049706,15000,15000,,,,,,,,,,,,,,,,,,,,,,,,
522,DRV000522,U Zaw Myint,U Zaw Myint,09794445548,,9794445548,10555,10555,,,,,,,,,,,,,,,,,,,,,,,,
523,DRV000523,U Tin Win Swe,U Tin Win Swe,09421108163,,9421108163,10755.75,10755.75,,,,,,,,,,,,,,,,,,,,,,,,
524,DRV000524,U Tun Naing,U Tun Naing,09799676701,,9799676701,15000,15000,,,,,,,,,,,,,,,,,,,,,,,,
525,DRV000525,U Soe Lin,U Soe Lin,09263672921,,9263672921,15000,15000,,,,,,,,,,,,,,,,,,,,,,,,
526,DRV000526,U Win Lwin,U Win Lwin,09795528379,,9795528379,11970,11970,,,,,,,,,,,,,,,,,,,,,,,,
527,DRV000527,U Win Min Han,U Win Min Han,09420320381,,9420320381,10820,10820,,,,,,,,,,,,,,,,,,,,,,,,
528,DRV000528,U Thet Kyaw Oo,U Thet Kyaw Oo,09449272990,,9449272990,14700,14700,,,,,,,,,,,,,,,,,,,,,,,,
529,DRV000529,U Myint Thein,U Myint Thein,09401545769,,9401545769,9675,9675,,,,,,,,,,,,,,,,,,,,,,,,
530,DRV000530,U Min Min Oo,U Min Min Oo,0931568204,,931568204,14575,14575,,,,,,,,,,,,,,,,,,,,,,,,
531,DRV000531,U Thaung Win,U Thaung Win,09420164341,,9420164341,15000,15000,,,,,,,,,,,,,,,,,,,,,,,,
532,DRV000532,U Zaw Min,U Zaw Min,09428019241,,9428019241,9730,9730,,,,,,,,,,,,,,,,,,,,,,,,
533,DRV000533,U Min Soe,U Min Soe,09771203279,,9771203279,12415,12415,,,,,,,,,,,,,,,,,,,,,,,,
534,DRV000534,U Nyan Win,U Nyan Win,09264895876,,9264895876,15000,15000,,,,,,,,,,,,,,,,,,,,,,,,
535,DRV000535,U Moe Naing,U Moe Naing,09795844770,,9795844770,15000,15000,,,,,,,,,,,,,,,,,,,,,,,,
536,DRV000536,U Tun Tun Aung,U Tun Tun Aung,09423738821,,9423738821,15000,15000,,,,,,,,,,,,,,,,,,,,,,,,
537,DRV000537,U Tun Tun Oo,U Tun Tun Oo,09794439584,,9794439584,7260,7260,,,,,,,,,,,,,,,,,,,,,,,,
538,DRV000538,U Kyaw Thura Mg Mg,U Kyaw Thura Mg Mg,09421073222,,9421073222,14700,14700,,,,,,,,,,,,,,,,,,,,,,,,
539,DRV000539,U Kyaw Kyaw,U Kyaw Kyaw,09263406635,,9263406635,15000,15000,,,,,,,,,,,,,,,,,,,,,,,,
540,DRV000540,U Aung Thu,U Aung Thu,09451007569,,9451007569,14815,14815,,,,,,,,,,,,,,,,,,,,,,,,
541,DRV000541,U Thein Zaw,U Thein Zaw,09250045058,,9250045058,1500,1000,,,,,,,,,,,,,,,,,,,,,,,,
542,DRV000542,U Wai Thu Aung,U Wai Thu Aung,09799898965,,9799898965,14100,14100,,,,,,,,,,,,,,,,,,,,,,,,
543,DRV000543,U Zay Yar Tun,U Zay Yar Tun,09421190025,,9421190025,15000,15000,,,,,,,,,,,,,,,,,,,,,,,,
544,DRV000544,U Nyein Chan Aung,U Nyein Chan Aung,09253882003,,9253882003,14040,14040,,,,,,,,,,,,,,,,,,,,,,,,
545,DRV000545,U Win Min Aung,U Win Min Aung,09795944799,,9795944799,15000,15000,,,,,,,,,,,,,,,,,,,,,,,,
546,DRV000546,U Hla Myo Oo,U Hla Myo Oo,9421072639,,9421072639,3184.94,3184.94,,,,,,,,,,,,,,,,,,,,,,,,
547,DRV000547,U Tun Tun Naing,U Tun Tun Naing,09770512009,,9770512009,1220,5783,,,,,,,,,,,,,,,,,,,,,,,,
548,DRV000548,U Nay Myo Aung,U Nay Myo Aung,09967273003,,9967273003,1270,3805,,,,,,,,,,,,,,,,,,,,,,,,
549,DRV000549,U Phone Myint Thu,U Phone Myint Thu,09961508068,,9961508068,1500,1000,,,,,,,,,,,,,,,,,,,,,,,,
550,DRV000550,U Myo Aung,U Myo Aung,09420061848,,9420061848,5705,3630,,,,,,,,,,,,,,,,,,,,,,,,
551,DRV000551,U Moe Kyaw San,U Moe Kyaw San,09421065862,,9421065862,1500,1000,,,,,,,,,,,,,,,,,,,,,,,,
552,DRV000552,U Moe Zaw Aung,U Moe Zaw Aung,0943036880,,943036880,15000,15000,,,,,,,,,,,,,,,,,,,,,,,,
553,DRV000553,U Aung Swe Lin,U Aung Swe Lin,09400005367,,9400005367,11500,11500,,,,,,,,,,,,,,,,,,,,,,,,
554,DRV000554,U Aung Swe,U Aung Swe,0973178596,,973178596,289.5,1000,,,,,,,,,,,,,,,,,,,,,,,,
555,DRV000555,U Moe Win San,U Moe Win San,09421073494,,9421073494,14859,13290,,,,,,,,,,,,,,,,,,,,,,,,
556,DRV000556,U Zaw Htet Oo,U Zaw Htet Oo,09250060062,,9250060062,2520,1000,,,,,,,,,,,,,,,,,,,,,,,,
557,DRV000557,U Mg Mg,U Mg Mg,09256207780,,9256207780,1625,1625,,,,,,,,,,,,,,,,,,,,,,,,
558,DRV000558,U Myat Mon,U Myat Mon,09777731627,,9777731627,7190,10365,,,,,,,,,,,,,,,,,,,,,,,,
559,DRV000559,U Aung Kyaw Sint,U Aung Kyaw Sint,09421098373,,9421098373,14645,14645,,,,,,,,,,,,,,,,,,,,,,,,
560,DRV000560,U Thein Soe,U Thein Soe,09798407521,,9798407521,1500,1000,,,,,,,,,,,,,,,,,,,,,,,,
561,DRV000561,U Win Myint,U Win Myint,09777375661,,9777375661,14983,15615,,,,,,,,,,,,,,,,,,,,,,,,
562,DRV000562,U Aung Ko Ko Win,U Aung Ko Ko Win,09254179855,,9254179855,12186,11656,,,,,,,,,,,,,,,,,,,,,,,,
563,DRV000563,U Zaw Zaw Win,U Zaw Zaw Win,09766005799,,9766005799,7010,7310,,,,,,,,,,,,,,,,,,,,,,,,
564,DRV000564,U Kyaw Kyaw,U Kyaw Kyaw,09420101613,,9420101613,12010,12110,,,,,,,,,,,,,,,,,,,,,,,,
565,DRV000565,U Nay Lin Aung,U Nay Lin Aung,09971616663,,9971616663,6800,6800,,,,,,,,,,,,,,,,,,,,,,,,
566,DRV000566,U Ye Tun Zaw,U Ye Tun Zaw,09420084203,,9420084203,1047,1000,,,,,,,,,,,,,,,,,,,,,,,,
567,DRV000567,U Kyaw Zayar Oo,U Kyaw Zayar Oo,09262811881,,9262811881,3440,3440,,,,,,,,,,,,,,,,,,,,,,,,
568,DRV000568,U Tun Naing Oo,U Tun Naing Oo,09421056112,,9421056112,1156,1000,,,,,,,,,,,,,,,,,,,,,,,,
569,DRV000569,U Kyaw Min Oo,U Kyaw Min Oo,09250024024,,9250024024,1500,1000,,,,,,,,,,,,,,,,,,,,,,,,
570,DRV000570,U Kyaw Kyaw,U Kyaw Kyaw,09450022577,,9450022577,4489,4770,,,,,,,,,,,,,,,,,,,,,,,,
571,DRV000571,U Aung Mya Kyaw,U Aung Mya Kyaw,09974329002,,9974329002,9870,9870,,,,,,,,,,,,,,,,,,,,,,,,
572,DRV000572,U  Tun Tun Oo,U  Tun Tun Oo,09421079717,,9421079717,1206,2615,,,,,,,,,,,,,,,,,,,,,,,,
573,DRV000573,U Kywe Lwin Oo,U Kywe Lwin Oo,0943096102,,943096102,15000,15000,,,,,,,,,,,,,,,,,,,,,,,,
574,DRV000574,U Nyunt Win,U Nyunt Win,'09798268773,,9798268773,-59,3855,,,,,,,,,,,,,,,,,,,,,,,,
575,DRV000575,U Aung Ko Hla,U Aung Ko Hla,09250087347,,9250087347,1087,1000,,,,,,,,,,,,,,,,,,,,,,,,
576,DRV000576,U Zaw Lin Tun,U Zaw Lin Tun,0931921155,,931921155,8940,9040,,,,,,,,,,,,,,,,,,,,,,,,
577,DRV000577,U Han Lin Aung,U Han Lin Aung,09795607651,,9795607651,14350,14350,,,,,,,,,,,,,,,,,,,,,,,,
578,DRV000578,U Moe Ko,U Moe Ko,0943051007,,943051007,7540,7540,,,,,,,,,,,,,,,,,,,,,,,,
579,DRV000579,U Zaw Win,U Zaw Win,09250058426,,9250058426,7740,3420,,,,,,,,,,,,,,,,,,,,,,,,
580,DRV000580,U Myint Naing,U Myint Naing,09 789597679,,9789597679,2944,2944,,,,,,,,,,,,,,,,,,,,,,,,
581,DRV000581,U Than Myint,U Than Myint,09774410234,,9774410234,4460,4560,,,,,,,,,,,,,,,,,,,,,,,,
582,DRV000582,U Aung Tin Latt,U Aung Tin Latt,09420093692,,9420093692,9506,10000,,,,,,,,,,,,,,,,,,,,,,,,
583,DRV000583,U Ohn,U Ohn,09772650862,,9772650862,3830,12980,,,,,,,,,,,,,,,,,,,,,,,,
584,DRV000584,U Mg Soe,U Mg Soe,09785160328,,9785160328,5256,5554,,,,,,,,,,,,,,,,,,,,,,,,
585,DRV000585,U Aung Khaing,U Aung Khaing,09421002853,,9421002853,9766,9881,,,,,,,,,,,,,,,,,,,,,,,,
586,DRV000586,U Thura Zaw,U Thura Zaw,09254113973,,9254113973,1500,1000,,,,,,,,,,,,,,,,,,,,,,,,
587,DRV000587,U Mg Mg Than,U Mg Mg Than,09261005445,,9261005445,12570,10170,,,,,,,,,,,,,,,,,,,,,,,,
588,DRV000588,U Aung Myo Chit,U Aung Myo Chit,09261494948 0932274223,,9261494948,4100.99,4100.99,,,,,,,,,,,,,,,,,,,,,,,,
589,DRV000589,U Myo Nyunt,U Myo Nyunt,9250166074,,9250166074,4206,6185,,,,,,,,,,,,,,,,,,,,,,,,
590,DRV000590,U Soe Moe Aung,U Soe Moe Aung,09450262170,,9450262170,10385,7655,,,,,,,,,,,,,,,,,,,,,,,,
591,DRV000591,U Myo Myint Kyaw,U Myo Myint Kyaw,09772117282,,9772117282,1185,1000,,,,,,,,,,,,,,,,,,,,,,,,
592,DRV000592,U Kyaw Lin Aung,U Kyaw Lin Aung,09420012952,,9420012952,10715,10715,,,,,,,,,,,,,,,,,,,,,,,,
593,DRV000593,U San Win,U San Win,09425983128,,9425983128,7460,7560,,,,,,,,,,,,,,,,,,,,,,,,
594,DRV000594,U Shain Ko Ko,U Shain Ko Ko,09253132455,,9253132455,1400,1000,,,,,,,,,,,,,,,,,,,,,,,,
595,DRV000595,U Tun Win Naing,U Tun Win Naing,095505846,,95505846,8020,8020,,,,,,,,,,,,,,,,,,,,,,,,
596,DRV000596,U Myo Chit,U Myo Chit,095101132,,95101132,13560,13675,,,,,,,,,,,,,,,,,,,,,,,,
597,DRV000597,U Thein Swe Win,U Thein Swe Win,09440020286,,9440020286,15000,15000,,,,,,,,,,,,,,,,,,,,,,,,
598,DRV000598,U Yin Htwe,U Yin Htwe,09254216947,,9254216947,14700,14700,,,,,,,,,,,,,,,,,,,,,,,,
599,DRV000599,U Aung Zay Lin,U Aung Zay Lin,09799444626,,9799444626,2985,2985,,,,,,,,,,,,,,,,,,,,,,,,
600,DRV000600,U Htein Lin Oo,U Htein Lin Oo,"09761647157
09254190857",,9761647157,14400,14400,,,,,,,,,,,,,,,,,,,,,,,,
601,DRV000601,U Kyaw Min Thu,U Kyaw Min Thu,09450241440,,9450241440,1500,1000,,,,,,,,,,,,,,,,,,,,,,,,
602,DRV000602,U Zaw Myo Aung,U Zaw Myo Aung,09798103297,,9798103297,14705,14805,,,,,,,,,,,,,,,,,,,,,,,,
603,DRV000603,U Than Htut Oo,U Than Htut Oo,09421138047,,9421138047,13265,13265,,,,,,,,,,,,,,,,,,,,,,,,
604,DRV000604,U Min Min Soe,U Min Min Soe,09798587029,,9798587029,1500,1000,,,,,,,,,,,,,,,,,,,,,,,,
605,DRV000605,U Myint Tun,U Myint Tun,0932107686,,932107686,3840,3940,,,,,,,,,,,,,,,,,,,,,,,,
606,DRV000606,U Hlaing Min Soe,U Hlaing Min Oo,09795725805,,9795725805,13490,13590,,,,,,,,,,,,,,,,,,,,,,,,
607,DRV000607,U Tun Lin Naing,U Tun Lin Naing,09795527587,,9795527587,12130,11830,,,,,,,,,,,,,,,,,,,,,,,,
608,DRV000608,U Nay Htet Aung,U Nay Htet Aung,09253741313,,9253741313,10580,15655,,,,,,,,,,,,,,,,,,,,,,,,
609,DRV000609,U Zaw Zaw Naing,U Zaw Zaw Naing,09798151640,,9798151640,6360,6360,,,,,,,,,,,,,,,,,,,,,,,,
610,DRV000610,U Zaw Moe Myint,U Zaw Moe Myint,09254347526,,9254347526,4940,3845,,,,,,,,,,,,,,,,,,,,,,,,
611,DRV000611,U Kyaw Myo Thwin,U Kyaw Myo Thwin,09255750249,,9255750249,19168,19168,,,,,,,,,,,,,,,,,,,,,,,,
612,DRV000612,U Min Thant Kyaw,U Min Thant Kyaw,09258475229,,9258475229,12765,12765,,,,,,,,,,,,,,,,,,,,,,,,
613,DRV000613,U San Yu,U San Yu,09254542447,,9254542447,1400,1000,,,,,,,,,,,,,,,,,,,,,,,,
614,DRV000614,U Hla Win,U Hla Win,09262185889,,9262185889,11140,11140,,,,,,,,,,,,,,,,,,,,,,,,
615,DRV000615,U Sai Kyaw Win Aung,U Sai Kyaw Win Aung,09421026948,,9421026948,9255,9255,,,,,,,,,,,,,,,,,,,,,,,,
616,DRV000616,U Myo Min Thein,U Myo Min Thein,09254216264,,9254216264,8250,6250,,,,,,,,,,,,,,,,,,,,,,,,
617,DRV000617,U Min Aung,U Min Aung,9420094346,,9420094346,1400,1000,,,,,,,,,,,,,,,,,,,,,,,,
618,DRV000618,U Khaing Soe Min,U Khaing Soe Min,09261482930,,9261482930,11877.56,10675.56,,,,,,,,,,,,,,,,,,,,,,,,
619,DRV000619,U Tun Latt,U Tun Latt,095097232,,95097232,13662,13421,,,,,,,,,,,,,,,,,,,,,,,,
620,DRV000620,U Win Myint Oo,U Win Myint Oo,09450027914,,9450027914,1000,1000,,,,,,,,,,,,,,,,,,,,,,,,
621,DRV000621,U Kyaw Myo Naing,U Kyaw Myo Naing,09454911456,,9454911456,10915,10915,,,,,,,,,,,,,,,,,,,,,,,,
622,DRV000622,U Ko Ko,U Ko Ko,09420082318,,9420082318,10695,10695,,,,,,,,,,,,,,,,,,,,,,,,
623,DRV000623,U kyaw Kyaw Hla,U kyaw Kyaw Hla,09449001668,,9449001668,14700,14700,,,,,,,,,,,,,,,,,,,,,,,,
624,DRV000624,U Kyi Zin Han,U Kyi Zin Han,09420172179,,9420172179,15000,15000,,,,,,,,,,,,,,,,,,,,,,,,
625,DRV000625,U Su Chit Aung,U Su Chit Aung,095084754,,95084754,15000,15000,,,,,,,,,,,,,,,,,,,,,,,,
626,DRV000626,U Aung Min,U Aung Min,09450222750,,9450222750,15000,15000,,,,,,,,,,,,,,,,,,,,,,,,
627,DRV000627,U Naing Win,U Naing Win,095330367,,95330367,14260,14260,,,,,,,,,,,,,,,,,,,,,,,,
628,DRV000628,U Paing Soe Kyaw,U Paing Soe Kyaw,09420024807,,9420024807,2410,2410,,,,,,,,,,,,,,,,,,,,,,,,
629,DRV000629,U Kyaw Kyaw San,U Kyaw Kyaw San,09420107873,,9420107873,9348,9545,,,,,,,,,,,,,,,,,,,,,,,,
630,DRV000630,U Ko Ko Oo,U Ko Ko Oo,"09799610431
09421098962",,9799610431,5190,5190,,,,,,,,,,,,,,,,,,,,,,,,
631,DRV000631,U Soe Moe,U Soe Moe,09261729932,,9261729932,663,1000,,,,,,,,,,,,,,,,,,,,,,,,
632,DRV000632,U Than Naing Htwe,U Than Naing Htwe,09420320443,,9420320443,12575,12575,,,,,,,,,,,,,,,,,,,,,,,,
633,DRV000633,U Aung Zay Latt,U Aung Zay Latt,09254042418,,9254042418,15000,15000,,,,,,,,,,,,,,,,,,,,,,,,
634,DRV000634,U Aung Zaw Latt,U Aung Zaw Latt,09420309619,,9420309619,3100,3100,,,,,,,,,,,,,,,,,,,,,,,,
635,DRV000635,U San Lwin,U San Lwin,09253831210,,9253831210,14400,14400,,,,,,,,,,,,,,,,,,,,,,,,
636,DRV000636,U Aung Soe Oo,U Aung Soe Oo,095212606,,95212606,12195,12195,,,,,,,,,,,,,,,,,,,,,,,,
637,DRV000637,U Thaw Tar Aung,U Thaw Tar Aung,09421046687,,9421046687,7545,5805,,,,,,,,,,,,,,,,,,,,,,,,
638,DRV000638,U Aung Naing,U Aung Naing,09250665973,,9250665973,13720,13720,,,,,,,,,,,,,,,,,,,,,,,,
639,DRV000639,U Soe Naing,U Soe Naing,09256423006,,9256423006,15000,15000,,,,,,,,,,,,,,,,,,,,,,,,
640,DRV000640,U Sein Myint,U Sein Myint,09451274321,,9451274321,12405,12405,,,,,,,,,,,,,,,,,,,,,,,,
641,DRV000641,U Thura Aung,U Thura Aung,09421036796,,9421036796,15000,15000,,,,,,,,,,,,,,,,,,,,,,,,
642,DRV000642,U Ko Ko Aung,U Ko Ko Aung,095159962,,95159962,14015,14015,,,,,,,,,,,,,,,,,,,,,,,,
643,DRV000643,U Zaw Moe Aung,U Zaw Moe Aung,09454450156,,9454450156,15395,14985,,,,,,,,,,,,,,,,,,,,,,,,
644,DRV000644,U Win Myat Soe,U Win Myat Soe,09250433038,,9250433038,1500,8915,,,,,,,,,,,,,,,,,,,,,,,,
645,DRV000645,U Wana Ko,U Wana Ko,09450587554,,9450587554,12070,12070,,,,,,,,,,,,,,,,,,,,,,,,
646,DRV000646,U Zarni Ko Ko,U Zarni Ko Ko,09795637106,,9795637106,20000,20000,,,,,,,,,,,,,,,,,,,,,,,,
647,DRV000647,U Thei Kha Kyaw Thu,U Thei Kha Kyaw Thu,09251111990,,9251111990,12635,12635,,,,,,,,,,,,,,,,,,,,,,,,
648,DRV000648,U Ye Zar Ni,U Ye Zar Ni,09961931811,,9961931811,3303,1000,,,,,,,,,,,,,,,,,,,,,,,,
649,DRV000649,U Phyo Wai Tun,U Phyo Wai Tun,09250494663,,9250494663,12989,13440,,,,,,,,,,,,,,,,,,,,,,,,
650,DRV000650,U Kyaw Lwin Thein,U Kyaw Lwin Thein,09420012687,,9420012687,2465,2465,,,,,,,,,,,,,,,,,,,,,,,,
651,DRV000651,U Yan Naing,U Yan Naing,9442557332,,9442557332,1500,1000,,,,,,,,,,,,,,,,,,,,,,,,
652,DRV000652,U Win Myint,U Win Myint,09420044202,,9420044202,770,1000,,,,,,,,,,,,,,,,,,,,,,,,
653,DRV000653,U Zaw Min Lwin,U Zaw Min Lwin,09775005528,,9775005528,2105.58,3644.58,,,,,,,,,,,,,,,,,,,,,,,,
654,DRV000654,U Ko Ko Min,U Ko Ko Min,9964395221,,9964395221,2750,2750,,,,,,,,,,,,,,,,,,,,,,,,
655,DRV000655,U Myat Thu,U Myat Thu,09252580903,,9252580903,9235,9030,,,,,,,,,,,,,,,,,,,,,,,,
656,DRV000656,U Thet Naing,U Thet Naing,0930387953,,930387953,15000,15000,,,,,,,,,,,,,,,,,,,,,,,,
657,DRV000657,U San Win Hlaing,U San Win Hlaing,09420058269,,9420058269,15000,15000,,,,,,,,,,,,,,,,,,,,,,,,
658,DRV000658,U Thein Htike,U Thein Htike,09448041884,,9448041884,14700,14700,,,,,,,,,,,,,,,,,,,,,,,,
659,DRV000659,U San Naing,U San Naing,09421152565,,9421152565,15000,15000,,,,,,,,,,,,,,,,,,,,,,,,
660,DRV000660,U Kyaw Zin Htet,U Kyaw Zin Htet,09421128644,,9421128644,1820,1820,,,,,,,,,,,,,,,,,,,,,,,,
661,DRV000661,U Nay Lin Soe,U Nay Lin Soe,095121766,,95121766,18650,18650,,,,,,,,,,,,,,,,,,,,,,,,
662,DRV000662,U Aung Min,U Aung Min,09250031245,,9250031245,1500,1000,,,,,,,,,,,,,,,,,,,,,,,,
663,DRV000663,U Aung Htwe Myint,U Aung Htwe Myint,095029345,,95029345,15000,15000,,,,,,,,,,,,,,,,,,,,,,,,
664,DRV000664,U Aung Myo Min,U Aung Myo Min,095049276,,95049276,15000,15000,,,,,,,,,,,,,,,,,,,,,,,,
665,DRV000665,U Than Htike,U Than Htike,09254194490,,9254194490,12245,12245,,,,,,,,,,,,,,,,,,,,,,,,
666,DRV000666,U Tin Htun,U Tin Htun,095410166,,95410166,8950,8950,,,,,,,,,,,,,,,,,,,,,,,,
667,DRV000667,U Jack Zin Yaw,U Jack Zin Yaw,09763161553,,9763161553,1500,1000,,,,,,,,,,,,,,,,,,,,,,,,
668,DRV000668,U Win Khaing,U Win Khaing,09771171787 09454525175,,9771171787,1500,1000,,,,,,,,,,,,,,,,,,,,,,,,
669,DRV000669,U Tin Win Aung,U Tin Win Aung,09978543830,,9978543830,1500,1000,,,,,,,,,,,,,,,,,,,,,,,,
670,DRV000670,U Tin Aung Ko,U Tin Aung Ko,09779079480,,9779079480,2525,2525,,,,,,,,,,,,,,,,,,,,,,,,
671,DRV000671,U Myo Thura Win,U Myo Thura Win,09450030192,,9450030192,10430,9970,,,,,,,,,,,,,,,,,,,,,,,,
672,DRV000672,U Win Ko,U Win Ko,0931230363,,931230363,2925.56,2925.56,,,,,,,,,,,,,,,,,,,,,,,,
673,DRV000673,U Min Zaw Myint,U Min Zaw Myint,9254436488,,9254436488,2565.84,2565.84,,,,,,,,,,,,,,,,,,,,,,,,
674,DRV000674,U Myo Hlaing,U Myo Hlaing,09420069778,,9420069778,1500,1000,,,,,,,,,,,,,,,,,,,,,,,,
675,DRV000675,U Htet Naung Sint,U Htet Naung Sint,09777199193,,9777199193,1500,1000,,,,,,,,,,,,,,,,,,,,,,,,
676,DRV000676,U Nay Htoo Aung,U Nay Htoo Aung,09794414947,,9794414947,1595,1595,,,,,,,,,,,,,,,,,,,,,,,,
677,DRV000677,U Min Swe,U Min Swe,09796393287,,9796393287,8340,7430,,,,,,,,,,,,,,,,,,,,,,,,
678,DRV000678,U Lin Han Htun,U Lin Han Htun,9780144123,,9780144123,1500,1000,,,,,,,,,,,,,,,,,,,,,,,,
679,DRV000679,U Thant Zin Oo,U Thant Zin Oo,9777703178,,9777703178,1500,1000,,,,,,,,,,,,,,,,,,,,,,,,
680,DRV000680,U Thant Zin,U Thant Zin,09968830197,,9968830197,2185,2185,,,,,,,,,,,,,,,,,,,,,,,,
681,DRV000681,U Wai Linn Ko Ko,U Wai Linn Ko Ko,09421063887,,9421063887,1888,7355,,,,,,,,,,,,,,,,,,,,,,,,
682,DRV000682,U Win Myint Tun,U Win Myint Tun,0932367109,,932367109,279,14750,,,,,,,,,,,,,,,,,,,,,,,,
683,DRV000683,U Khin Maung Tin,U Khin Maung Tin,09261777991,,9261777991,9436,9436,,,,,,,,,,,,,,,,,,,,,,,,
684,DRV000684,U San Ngwe,U San Ngwe,09421035441,,9421035441,3499,3499,,,,,,,,,,,,,,,,,,,,,,,,
685,DRV000685,U Zaw Win ,U Zaw Win ,"09253790941
09254715641",,9253790941,1500,1000,,,,,,,,,,,,,,,,,,,,,,,,
686,DRV000686,U Naing Naing Aung,U Naing Naing Aung,09778912605,,9778912605,9320,5570,,,,,,,,,,,,,,,,,,,,,,,,
687,DRV000687,U Nyi Nyi Zin,U Nyi Nyi Zin,09420253789,,9420253789,1500,1000,,,,,,,,,,,,,,,,,,,,,,,,
688,DRV000688,U Aung Aung,U Aung Aung,09766211003,,9766211003,1744.5,1000,,,,,,,,,,,,,,,,,,,,,,,,
689,DRV000689,U Min Min Naing,U Min Min Naing,09969915537,,9969915537,5812,7640,,,,,,,,,,,,,,,,,,,,,,,,
690,DRV000690,U Win Tun,U Win Tun,09421045905,,9421045905,8405,6240,,,,,,,,,,,,,,,,,,,,,,,,
691,DRV000691,U Tin Hla,U Tin Hla,09775346313,,9775346313,2579,2579,,,,,,,,,,,,,,,,,,,,,,,,
692,DRV000692,U Han Tin Soe,U Han Tin Soe,09953280723,,9953280723,12281,12281,,,,,,,,,,,,,,,,,,,,,,,,
693,DRV000693,U Thein Tun Lin,U Thein Tun Lin,"0932383625
09254117133",,932383625,5000,5000,,,,,,,,,,,,,,,,,,,,,,,,
694,DRV000694,U Mg Oo,U Mg Oo,09971974786,,9971974786,1500,1000,,,,,,,,,,,,,,,,,,,,,,,,
695,DRV000695,U Myat Thu Aung,U Myat Thu Aung,09453745068,,9453745068,4602,4510,,,,,,,,,,,,,,,,,,,,,,,,
696,DRV000696,U Kyaw Zaw Tun,U Kyaw Zaw Tun,09452428651,,9452428651,5000,5000,,,,,,,,,,,,,,,,,,,,,,,,
697,DRV000697,U Khin Maung Yee,U Khin Maung Yee,0931063141,,931063141,1841,3045,,,,,,,,,,,,,,,,,,,,,,,,
698,DRV000698,U Kyaw Zin Oo,U Kyaw Zin Oo,09952506331,,9952506331,4150,3600,,,,,,,,,,,,,,,,,,,,,,,,
699,DRV000699,U Myat Thu,U Myat Thu,09979683162 09421087156,,9979683162,-791,1000,,,,,,,,,,,,,,,,,,,,,,,,
700,DRV000700,U Naing Win,U Naing Win,09421148492,,9421148492,14300,1000,,,,,,,,,,,,,,,,,,,,,,,,
701,DRV000701,U Maung Maung Latt,U Maung Maung Latt,0949331860,,949331860,1500,1000,,,,,,,,,,,,,,,,,,,,,,,,
702,DRV000702,Daw Su Mon Kyaw,Daw Su Mon Kyaw,"09795808754
'0973003282, ",,9795808754,3361,3361,,,,,,,,,,,,,,,,,,,,,,,,
703,DRV000703,U Soe Thu,U Soe Thu,09972428690,,9972428690,1500,1000,,,,,,,,,,,,,,,,,,,,,,,,
704,DRV000704,U Han Min Tun,U Han Min Tun,09795629538,,9795629538,3830,3995,,,,,,,,,,,,,,,,,,,,,,,,
705,DRV000705,U Ko Oo,U Ko Oo,09979946747,,9979946747,9370,9370,,,,,,,,,,,,,,,,,,,,,,,,
706,DRV000706,U Win Tun Naing,U Win Tun Naing,0943108792,,943108792,6050,6050,,,,,,,,,,,,,,,,,,,,,,,,
707,DRV000707,U Kyaw Thiha,U Kyaw Thiha,09420112359,,9420112359,11800,11800,,,,,,,,,,,,,,,,,,,,,,,,
708,DRV000708,U Hla Phone Oo,U Hla Phone Oo,09262628270,,9262628270,7227,12620,,,,,,,,,,,,,,,,,,,,,,,,
709,DRV000709,U Myat Tun,U Myat Tun,09783945020 09253730044,,9783945020,8550,8550,,,,,,,,,,,,,,,,,,,,,,,,
710,DRV000710,U Tun Ko Ko Win,U Tun Ko Ko Win,09262326020,,9262326020,5000,5000,,,,,,,,,,,,,,,,,,,,,,,,
711,DRV000711,U Kyaw Min Oo,U Kyaw Min Oo,"09421127140
09972183309",,9421127140,1000,1000,,,,,,,,,,,,,,,,,,,,,,,,
712,DRV000712,U Myat Thein Khaing,U Myat Thein Khaing,09790198196,,9790198196,1189,1000,,,,,,,,,,,,,,,,,,,,,,,,
713,DRV000713,U Ye Min Htun,U Ye Min Htun,9777264285,,9777264285,1500,1000,,,,,,,,,,,,,,,,,,,,,,,,
714,DRV000714,U Kyaw Zaya,U Kyaw Zaya,09250757791,,9250757791,4472,5000,,,,,,,,,,,,,,,,,,,,,,,,
715,DRV000715,U Myo Thein,U Myo Thein,09978602515,,9978602515,23765,21930,,,,,,,,,,,,,,,,,,,,,,,,
716,DRV000716,U Win Naing Oo,U Win Naing Oo,09782897060,,9782897060,6545.11,6158.11,,,,,,,,,,,,,,,,,,,,,,,,
717,DRV000717,U Tin Zaw Latt,U Tin Zaw Latt,09421011901,,9421011901,13326,10065,,,,,,,,,,,,,,,,,,,,,,,,
718,DRV000718,U Kyaw Kyaw Oo,U Kyaw Kyaw Oo,0943117092,,943117092,1500,8510,,,,,,,,,,,,,,,,,,,,,,,,
719,DRV000719,U Soe Khaing,U Soe Khaing,09420178466,,9420178466,15470,14315,,,,,,,,,,,,,,,,,,,,,,,,
720,DRV000720,U Ko Ko Maung,U Ko Ko Maung,0943072401,,943072401,4406,4406,,,,,,,,,,,,,,,,,,,,,,,,
,,,,,,,,,,,,,,,,,,,,,,,,,,,,,,,,
,,,,,,,,,,,,,,,,,,,,,,,,,,,,,,,,
,,,,,,,,,,,,,,,,,,,,,,,,,,,,,,,,
,,,,,,,,,,,,,,,,,,,,,,,,,,,,,,,,
,,,,,,,,,,,,,,,,,,,,,,,,,,,,,,,,
,,,,,,,,,,,,,,,,,,,,,,,,,,,,,,,,
,,,,,,,,,,,,,,,,,,,,,,,,,,,,,,,,
,,,,,,,,,,,,,,,,,,,,,,,,,,,,,,,,
,,,,,,,,,,,,,,,,,,,,,,,,,,,,,,,,
,,,,,,,,,,,,,,,,,,,,,,,,,,,,,,,,
,,,,,,,,,,,,,,,,,,,,,,,,,,,,,,,,
,,,,,,,,,,,,,,,,,,,,,,,,,,,,,,,,
,,,,,,,,,,,,,,,,,,,,,,,,,,,,,,,,
,,,,,,,,,,,,,,,,,,,,,,,,,,,,,,,,
,,,,,,,,,,,,,,,,,,,,,,,,,,,,,,,,
,,,,,,,,,,,,,,,,,,,,,,,,,,,,,,,,
,,,,,,,,,,,,,,,,,,,,,,,,,,,,,,,,
,,,,,,,,,,,,,,,,,,,,,,,,,,,,,,,,
,,,,,,,,,,,,,,,,,,,,,,,,,,,,,,,,
,,,,,,,,,,,,,,,,,,,,,,,,,,,,,,,,
,,,,,,,,,,,,,,,,,,,,,,,,,,,,,,,,
,,,,,,,,,,,,,,,,,,,,,,,,,,,,,,,,
,,,,,,,,,,,,,,,,,,,,,,,,,,,,,,,,
,,,,,,,,,,,,,,,,,,,,,,,,,,,,,,,,
,,,,,,,,,,,,,,,,,,,,,,,,,,,,,,,,
,,,,,,,,,,,,,,,,,,,,,,,,,,,,,,,,
,,,,,,,,,,,,,,,,,,,,,,,,,,,,,,,,
,,,,,,,,,,,,,,,,,,,,,,,,,,,,,,,,
,,,,,,,,,,,,,,,,,,,,,,,,,,,,,,,,
,,,,,,,,,,,,,,,,,,,,,,,,,,,,,,,,
,,,,,,,,,,,,,,,,,,,,,,,,,,,,,,,,
,,,,,,,,,,,,,,,,,,,,,,,,,,,,,,,,
,,,,,,,,,,,,,,,,,,,,,,,,,,,,,,,,
,,,,,,,,,,,,,,,,,,,,,,,,,,,,,,,,
,,,,,,,,,,,,,,,,,,,,,,,,,,,,,,,,
,,,,,,,,,,,,,,,,,,,,,,,,,,,,,,,,
,,,,,,,,,,,,,,,,,,,,,,,,,,,,,,,,
,,,,,,,,,,,,,,,,,,,,,,,,,,,,,,,,
,,,,,,,,,,,,,,,,,,,,,,,,,,,,,,,,
,,,,,,,,,,,,,,,,,,,,,,,,,,,,,,,,
,,,,,,,,,,,,,,,,,,,,,,,,,,,,,,,,
,,,,,,,,,,,,,,,,,,,,,,,,,,,,,,,,
,,,,,,,,,,,,,,,,,,,,,,,,,,,,,,,,
,,,,,,,,,,,,,,,,,,,,,,,,,,,,,,,,
,,,,,,,,,,,,,,,,,,,,,,,,,,,,,,,,
,,,,,,,,,,,,,,,,,,,,,,,,,,,,,,,,
,,,,,,,,,,,,,,,,,,,,,,,,,,,,,,,,
,,,,,,,,,,,,,,,,,,,,,,,,,,,,,,,,
,,,,,,,,,,,,,,,,,,,,,,,,,,,,,,,,
,,,,,,,,,,,,,,,,,,,,,,,,,,,,,,,,
,,,,,,,,,,,,,,,,,,,,,,,,,,,,,,,,
,,,,,,,,,,,,,,,,,,,,,,,,,,,,,,,,
,,,,,,,,,,,,,,,,,,,,,,,,,,,,,,,,
,,,,,,,,,,,,,,,,,,,,,,,,,,,,,,,,
,,,,,,,,,,,,,,,,,,,,,,,,,,,,,,,,
,,,,,,,,,,,,,,,,,,,,,,,,,,,,,,,,
,,,,,,,,,,,,,,,,,,,,,,,,,,,,,,,,
,,,,,,,,,,,,,,,,,,,,,,,,,,,,,,,,
,,,,,,,,,,,,,,,,,,,,,,,,,,,,,,,,
,,,,,,,,,,,,,,,,,,,,,,,,,,,,,,,,
,,,,,,,,,,,,,,,,,,,,,,,,,,,,,,,,
,,,,,,,,,,,,,,,,,,,,,,,,,,,,,,,,
,,,,,,,,,,,,,,,,,,,,,,,,,,,,,,,,
,,,,,,,,,,,,,,,,,,,,,,,,,,,,,,,,
,,,,,,,,,,,,,,,,,,,,,,,,,,,,,,,,
,,,,,,,,,,,,,,,,,,,,,,,,,,,,,,,,
,,,,,,,,,,,,,,,,,,,,,,,,,,,,,,,,
,,,,,,,,,,,,,,,,,,,,,,,,,,,,,,,,
,,,,,,,,,,,,,,,,,,,,,,,,,,,,,,,,
,,,,,,,,,,,,,,,,,,,,,,,,,,,,,,,,
,,,,,,,,,,,,,,,,,,,,,,,,,,,,,,,,
,,,,,,,,,,,,,,,,,,,,,,,,,,,,,,,,
,,,,,,,,,,,,,,,,,,,,,,,,,,,,,,,,
,,,,,,,,,,,,,,,,,,,,,,,,,,,,,,,,
,,,,,,,,,,,,,,,,,,,,,,,,,,,,,,,,
,,,,,,,,,,,,,,,,,,,,,,,,,,,,,,,,
,,,,,,,,,,,,,,,,,,,,,,,,,,,,,,,,
,,,,,,,,,,,,,,,,,,,,,,,,,,,,,,,,
,,,,,,,,,,,,,,,,,,,,,,,,,,,,,,,,
,,,,,,,,,,,,,,,,,,,,,,,,,,,,,,,,
,,,,,,,,,,,,,,,,,,,,,,,,,,,,,,,,
,,,,,,,,,,,,,,,,,,,,,,,,,,,,,,,,
,,,,,,,,,,,,,,,,,,,,,,,,,,,,,,,,
,,,,,,,,,,,,,,,,,,,,,,,,,,,,,,,,
,,,,,,,,,,,,,,,,,,,,,,,,,,,,,,,,
,,,,,,,,,,,,,,,,,,,,,,,,,,,,,,,,
,,,,,,,,,,,,,,,,,,,,,,,,,,,,,,,,
,,,,,,,,,,,,,,,,,,,,,,,,,,,,,,,,
,,,,,,,,,,,,,,,,,,,,,,,,,,,,,,,,
,,,,,,,,,,,,,,,,,,,,,,,,,,,,,,,,
,,,,,,,,,,,,,,,,,,,,,,,,,,,,,,,,
,,,,,,,,,,,,,,,,,,,,,,,,,,,,,,,,
,,,,,,,,,,,,,,,,,,,,,,,,,,,,,,,,
,,,,,,,,,,,,,,,,,,,,,,,,,,,,,,,,
,,,,,,,,,,,,,,,,,,,,,,,,,,,,,,,,
,,,,,,,,,,,,,,,,,,,,,,,,,,,,,,,,
,,,,,,,,,,,,,,,,,,,,,,,,,,,,,,,,
,,,,,,,,,,,,,,,,,,,,,,,,,,,,,,,,
,,,,,,,,,,,,,,,,,,,,,,,,,,,,,,,,
